solid Корпус дозатор 2019
facet normal -0.998820834948737 -0.0485483230638127 -0.0
  outer loop
    vertex 139.62081810802022 393.9022822620488 15.800000000000004
    vertex 139.6715127300057 392.8593040196815 13.800000000000002
    vertex 139.6715127300057 392.8593040196815 15.800000000000004
  endloop
endfacet
facet normal -0.998820834948737 -0.0485483230638127 -0.0
  outer loop
    vertex 139.6715127300057 392.8593040196815 13.800000000000002
    vertex 139.62081810802022 393.9022822620488 15.800000000000004
    vertex 139.62081810802022 393.9022822620488 13.800000000000002
  endloop
endfacet
facet normal -0.9522216096958921 -0.30540793380029324 -0.0
  outer loop
    vertex 139.30190823063825 394.8966011489548 15.800000000000004
    vertex 139.62081810802022 393.9022822620488 13.800000000000002
    vertex 139.62081810802022 393.9022822620488 15.800000000000004
  endloop
endfacet
facet normal -0.9522216096958921 -0.30540793380029324 -0.0
  outer loop
    vertex 139.62081810802022 393.9022822620488 13.800000000000002
    vertex 139.30190823063825 394.8966011489548 15.800000000000004
    vertex 139.30190823063825 394.8966011489548 13.800000000000002
  endloop
endfacet
facet normal -0.9773520709292977 0.21161977565958592 0.0
  outer loop
    vertex 139.6715127300057 392.8593040196815 15.800000000000004
    vertex 139.45053734188326 391.83874366546723 13.800000000000002
    vertex 139.45053734188326 391.83874366546723 15.800000000000004
  endloop
endfacet
facet normal -0.9773520709292977 0.21161977565958592 0.0
  outer loop
    vertex 139.45053734188326 391.83874366546723 13.800000000000002
    vertex 139.6715127300057 392.8593040196815 15.800000000000004
    vertex 139.6715127300057 392.8593040196815 13.800000000000002
  endloop
endfacet
facet normal -0.8892783784266916 0.45736633638998186 0.0
  outer loop
    vertex 139.45053734188326 391.83874366546723 15.800000000000004
    vertex 138.9729510511743 390.91015070098996 13.800000000000002
    vertex 138.9729510511743 390.91015070098996 15.800000000000004
  endloop
endfacet
facet normal -0.8892783784266916 0.45736633638998186 0.0
  outer loop
    vertex 138.9729510511743 390.91015070098996 13.800000000000002
    vertex 139.45053734188326 391.83874366546723 15.800000000000004
    vertex 139.45053734188326 391.83874366546723 13.800000000000002
  endloop
endfacet
facet normal 0.0 0.0 1.0
  outer loop
    vertex 113.68506228204087 282.1882611991455 22.800000000000015
    vertex 108.68506228204089 379.1882611991455 22.800000000000015
    vertex 108.68506228204089 282.1882611991455 22.800000000000015
  endloop
endfacet
facet normal 0.0 0.0 1.0
  outer loop
    vertex 108.68506228204089 379.1882611991455 22.800000000000015
    vertex 113.68506228204087 282.1882611991455 22.800000000000015
    vertex 113.68506228204087 379.1882611991455 22.800000000000015
  endloop
endfacet
facet normal 1.0 0.0 0.0
  outer loop
    vertex 104.18506228204085 406.68826119914536 15.800000000000002
    vertex 104.18506228204085 278.6882611991456 100.8
    vertex 104.18506228204085 278.6882611991456 15.800000000000002
  endloop
endfacet
facet normal 1.0 0.0 0.0
  outer loop
    vertex 104.18506228204085 278.6882611991456 100.8
    vertex 104.18506228204085 406.68826119914536 15.800000000000002
    vertex 104.18506228204085 406.68826119914536 100.8
  endloop
endfacet
facet normal 0.0 0.0 1.0
  outer loop
    vertex 160.68506228204086 282.1882611991455 22.800000000000004
    vertex 156.68506228204086 379.1882611991455 22.800000000000004
    vertex 156.68506228204086 282.1882611991455 22.800000000000004
  endloop
endfacet
facet normal 0.0 0.0 1.0
  outer loop
    vertex 156.68506228204086 379.1882611991455 22.800000000000004
    vertex 160.68506228204086 282.1882611991455 22.800000000000004
    vertex 160.68506228204086 379.1882611991455 22.800000000000004
  endloop
endfacet
facet normal 0.21161977565958592 0.9773520709292977 0.0
  outer loop
    vertex 134.33554474836265 389.422786139303 15.800000000000004
    vertex 135.35610510257692 389.2018107511806 13.800000000000002
    vertex 134.33554474836265 389.422786139303 13.800000000000002
  endloop
endfacet
facet normal 0.21161977565958592 0.9773520709292977 0.0
  outer loop
    vertex 135.35610510257692 389.2018107511806 13.800000000000002
    vertex 134.33554474836265 389.422786139303 15.800000000000004
    vertex 135.35610510257692 389.2018107511806 15.800000000000004
  endloop
endfacet
facet normal -0.30540793380029324 0.9522216096958921 0.0
  outer loop
    vertex 136.39908334494422 389.2525053731661 15.800000000000004
    vertex 137.39340223185025 389.57141525054806 13.800000000000002
    vertex 136.39908334494422 389.2525053731661 13.800000000000002
  endloop
endfacet
facet normal -0.30540793380029324 0.9522216096958921 0.0
  outer loop
    vertex 137.39340223185025 389.57141525054806 13.800000000000002
    vertex 136.39908334494422 389.2525053731661 15.800000000000004
    vertex 137.39340223185025 389.57141525054806 15.800000000000004
  endloop
endfacet
facet normal 0.45736633638998186 0.8892783784266916 0.0
  outer loop
    vertex 133.4069517838854 389.900372430012 15.800000000000004
    vertex 134.33554474836265 389.422786139303 13.800000000000002
    vertex 133.4069517838854 389.900372430012 13.800000000000002
  endloop
endfacet
facet normal 0.45736633638998186 0.8892783784266916 0.0
  outer loop
    vertex 134.33554474836265 389.422786139303 13.800000000000002
    vertex 133.4069517838854 389.900372430012 15.800000000000004
    vertex 134.33554474836265 389.422786139303 15.800000000000004
  endloop
endfacet
facet normal -0.5414544985587549 0.8407300553628895 0.0
  outer loop
    vertex 137.39340223185025 389.57141525054806 15.800000000000004
    vertex 138.271300574342 390.1368072022064 13.800000000000002
    vertex 137.39340223185025 389.57141525054806 13.800000000000002
  endloop
endfacet
facet normal -0.5414544985587549 0.8407300553628895 0.0
  outer loop
    vertex 138.271300574342 390.1368072022064 13.800000000000002
    vertex 137.39340223185025 389.57141525054806 15.800000000000004
    vertex 138.271300574342 390.1368072022064 15.800000000000004
  endloop
endfacet
facet normal -1.0 0.0 0.0
  outer loop
    vertex 102.18506228204086 408.6882611991455 100.80000000000007
    vertex 102.18506228204086 276.6882611991456 13.800000000000002
    vertex 102.18506228204086 276.6882611991456 100.80000000000007
  endloop
endfacet
facet normal -1.0 0.0 0.0
  outer loop
    vertex 102.18506228204086 276.6882611991456 13.800000000000002
    vertex 102.18506228204086 408.6882611991455 100.80000000000007
    vertex 102.18506228204086 408.6882611991455 13.800000000000002
  endloop
endfacet
facet normal 0.0 -1.0 0.0
  outer loop
    vertex 113.68506228204087 282.1882611991455 22.800000000000015
    vertex 108.68506228204089 282.1882611991455 15.800000000000002
    vertex 113.68506228204087 282.1882611991455 15.800000000000002
  endloop
endfacet
facet normal 0.0 -1.0 0.0
  outer loop
    vertex 108.68506228204089 282.1882611991455 15.800000000000002
    vertex 113.68506228204087 282.1882611991455 22.800000000000015
    vertex 108.68506228204089 282.1882611991455 22.800000000000015
  endloop
endfacet
facet normal 0.0 0.0 1.0
  outer loop
    vertex 102.18506228204086 276.6882611991456 100.80000000000007
    vertex 104.18506228204085 278.6882611991456 100.8
    vertex 102.18506228204086 408.6882611991455 100.80000000000007
  endloop
endfacet
facet normal 0.0 0.0 1.0
  outer loop
    vertex 104.18506228204085 278.6882611991456 100.8
    vertex 102.18506228204086 276.6882611991456 100.80000000000007
    vertex 169.18506228204086 276.6882611991456 100.80000000000007
  endloop
endfacet
facet normal 0.0 0.0 1.0
  outer loop
    vertex 104.18506228204085 278.6882611991456 100.8
    vertex 169.18506228204086 276.6882611991456 100.80000000000007
    vertex 167.18506228204086 278.6882611991456 100.8
  endloop
endfacet
facet normal 0.0 0.0 1.0
  outer loop
    vertex 167.18506228204086 278.6882611991456 100.8
    vertex 169.18506228204086 276.6882611991456 100.80000000000007
    vertex 167.18506228204086 406.68826119914536 100.8
  endloop
endfacet
facet normal 0.0 0.0 1.0
  outer loop
    vertex 102.18506228204086 408.6882611991455 100.80000000000007
    vertex 104.18506228204085 406.68826119914536 100.8
    vertex 169.18506228204086 408.6882611991455 100.80000000000007
  endloop
endfacet
facet normal 0.0 0.0 1.0
  outer loop
    vertex 104.18506228204085 406.68826119914536 100.8
    vertex 102.18506228204086 408.6882611991455 100.80000000000007
    vertex 104.18506228204085 278.6882611991456 100.8
  endloop
endfacet
facet normal 0.0 0.0 1.0
  outer loop
    vertex 169.18506228204086 408.6882611991455 100.80000000000007
    vertex 104.18506228204085 406.68826119914536 100.8
    vertex 167.18506228204086 406.68826119914536 100.8
  endloop
endfacet
facet normal 0.0 0.0 1.0
  outer loop
    vertex 169.18506228204086 408.6882611991455 100.80000000000007
    vertex 167.18506228204086 406.68826119914536 100.8
    vertex 169.18506228204086 276.6882611991456 100.80000000000007
  endloop
endfacet
facet normal 0.0 1.0 0.0
  outer loop
    vertex 156.68506228204086 379.1882611991455 22.800000000000004
    vertex 160.68506228204086 379.1882611991455 15.800000000000002
    vertex 156.68506228204086 379.1882611991455 15.800000000000002
  endloop
endfacet
facet normal 0.0 1.0 0.0
  outer loop
    vertex 160.68506228204086 379.1882611991455 15.800000000000002
    vertex 156.68506228204086 379.1882611991455 22.800000000000004
    vertex 160.68506228204086 379.1882611991455 22.800000000000004
  endloop
endfacet
facet normal -0.0 -1.0 -0.0
  outer loop
    vertex 154.68506228204086 379.1882611991455 15.800000000000002
    vertex 116.68506228204087 379.1882611991455 13.800000000000002
    vertex 154.68506228204086 379.1882611991455 13.800000000000002
  endloop
endfacet
facet normal -0.0 -1.0 -0.0
  outer loop
    vertex 116.68506228204087 379.1882611991455 13.800000000000002
    vertex 154.68506228204086 379.1882611991455 15.800000000000002
    vertex 116.68506228204087 379.1882611991455 15.800000000000002
  endloop
endfacet
facet normal 0.0 1.0 0.0
  outer loop
    vertex 104.18506228204085 278.6882611991456 100.8
    vertex 167.18506228204086 278.6882611991456 15.800000000000002
    vertex 104.18506228204085 278.6882611991456 15.800000000000002
  endloop
endfacet
facet normal 0.0 1.0 0.0
  outer loop
    vertex 167.18506228204086 278.6882611991456 15.800000000000002
    vertex 104.18506228204085 278.6882611991456 100.8
    vertex 167.18506228204086 278.6882611991456 100.8
  endloop
endfacet
facet normal 0.0 1.0 0.0
  outer loop
    vertex 116.68506228204087 282.1882611991455 15.800000000000002
    vertex 154.68506228204086 282.1882611991455 13.800000000000002
    vertex 116.68506228204087 282.1882611991455 13.800000000000002
  endloop
endfacet
facet normal 0.0 1.0 0.0
  outer loop
    vertex 154.68506228204086 282.1882611991455 13.800000000000002
    vertex 116.68506228204087 282.1882611991455 15.800000000000002
    vertex 154.68506228204086 282.1882611991455 15.800000000000002
  endloop
endfacet
facet normal -0.6719441371290233 -0.7406018340363008 -0.0
  outer loop
    vertex 138.7365162789799 395.77449949144653 15.800000000000004
    vertex 137.96317278019632 396.4761499682789 13.800000000000002
    vertex 138.7365162789799 395.77449949144653 13.800000000000002
  endloop
endfacet
facet normal -0.6719441371290233 -0.7406018340363008 -0.0
  outer loop
    vertex 137.96317278019632 396.4761499682789 13.800000000000002
    vertex 138.7365162789799 395.77449949144653 15.800000000000004
    vertex 137.96317278019632 396.4761499682789 15.800000000000004
  endloop
endfacet
facet normal 0.6719441371289996 0.7406018340363223 0.0
  outer loop
    vertex 132.63360828510181 390.6020229068443 15.800000000000004
    vertex 133.4069517838854 389.900372430012 13.800000000000002
    vertex 132.63360828510181 390.6020229068443 13.800000000000002
  endloop
endfacet
facet normal 0.6719441371289996 0.7406018340363223 0.0
  outer loop
    vertex 133.4069517838854 389.900372430012 13.800000000000002
    vertex 132.63360828510181 390.6020229068443 15.800000000000004
    vertex 133.4069517838854 389.900372430012 15.800000000000004
  endloop
endfacet
facet normal -0.8407300553628834 -0.5414544985587648 -0.0
  outer loop
    vertex 138.7365162789799 395.77449949144653 15.800000000000004
    vertex 139.30190823063825 394.8966011489548 13.800000000000002
    vertex 139.30190823063825 394.8966011489548 15.800000000000004
  endloop
endfacet
facet normal -0.8407300553628834 -0.5414544985587648 -0.0
  outer loop
    vertex 139.30190823063825 394.8966011489548 13.800000000000002
    vertex 138.7365162789799 395.77449949144653 15.800000000000004
    vertex 138.7365162789799 395.77449949144653 13.800000000000002
  endloop
endfacet
facet normal -0.0485483230638127 0.998820834948737 0.0
  outer loop
    vertex 135.35610510257692 389.2018107511806 15.800000000000004
    vertex 136.39908334494422 389.2525053731661 13.800000000000002
    vertex 135.35610510257692 389.2018107511806 13.800000000000002
  endloop
endfacet
facet normal -0.0485483230638127 0.998820834948737 0.0
  outer loop
    vertex 136.39908334494422 389.2525053731661 13.800000000000002
    vertex 135.35610510257692 389.2018107511806 15.800000000000004
    vertex 136.39908334494422 389.2525053731661 15.800000000000004
  endloop
endfacet
facet normal -0.0 -1.0 -0.0
  outer loop
    vertex 169.18506228204086 276.6882611991456 100.80000000000007
    vertex 102.18506228204086 276.6882611991456 13.800000000000002
    vertex 169.18506228204086 276.6882611991456 13.800000000000002
  endloop
endfacet
facet normal -0.0 -1.0 -0.0
  outer loop
    vertex 102.18506228204086 276.6882611991456 13.800000000000002
    vertex 169.18506228204086 276.6882611991456 100.80000000000007
    vertex 102.18506228204086 276.6882611991456 100.80000000000007
  endloop
endfacet
facet normal 0.8892783784266871 -0.4573663363899907 0.0
  outer loop
    vertex 132.39717351290741 395.4663716973009 13.800000000000002
    vertex 131.91958722219846 394.5377787328236 15.800000000000004
    vertex 131.91958722219846 394.5377787328236 13.800000000000002
  endloop
endfacet
facet normal 0.8892783784266871 -0.4573663363899907 0.0
  outer loop
    vertex 131.91958722219846 394.5377787328236 15.800000000000004
    vertex 132.39717351290741 395.4663716973009 13.800000000000002
    vertex 132.39717351290741 395.4663716973009 15.800000000000004
  endloop
endfacet
facet normal -0.21161977565956527 -0.9773520709293021 -0.0
  outer loop
    vertex 137.03457981571907 396.9537362589878 15.800000000000004
    vertex 136.0140194615048 397.17471164711026 13.800000000000002
    vertex 137.03457981571907 396.9537362589878 13.800000000000002
  endloop
endfacet
facet normal -0.21161977565956527 -0.9773520709293021 -0.0
  outer loop
    vertex 136.0140194615048 397.17471164711026 13.800000000000002
    vertex 137.03457981571907 396.9537362589878 15.800000000000004
    vertex 136.0140194615048 397.17471164711026 15.800000000000004
  endloop
endfacet
facet normal 0.0 -1.0 0.0
  outer loop
    vertex 160.68506228204086 282.1882611991455 22.800000000000004
    vertex 156.68506228204086 282.1882611991455 15.800000000000002
    vertex 160.68506228204086 282.1882611991455 15.800000000000002
  endloop
endfacet
facet normal 0.0 -1.0 0.0
  outer loop
    vertex 156.68506228204086 282.1882611991455 15.800000000000002
    vertex 160.68506228204086 282.1882611991455 22.800000000000004
    vertex 156.68506228204086 282.1882611991455 22.800000000000004
  endloop
endfacet
facet normal -0.4573663363899648 -0.8892783784267004 -0.0
  outer loop
    vertex 137.96317278019632 396.4761499682789 15.800000000000004
    vertex 137.03457981571907 396.9537362589878 13.800000000000002
    vertex 137.96317278019632 396.4761499682789 13.800000000000002
  endloop
endfacet
facet normal -0.4573663363899648 -0.8892783784267004 -0.0
  outer loop
    vertex 137.03457981571907 396.9537362589878 13.800000000000002
    vertex 137.96317278019632 396.4761499682789 15.800000000000004
    vertex 137.03457981571907 396.9537362589878 15.800000000000004
  endloop
endfacet
facet normal 0.7406018340363321 -0.6719441371289888 0.0
  outer loop
    vertex 133.0988239897397 396.2397151960845 13.800000000000002
    vertex 132.39717351290741 395.4663716973009 15.800000000000004
    vertex 132.39717351290741 395.4663716973009 13.800000000000002
  endloop
endfacet
facet normal 0.7406018340363321 -0.6719441371289888 0.0
  outer loop
    vertex 132.39717351290741 395.4663716973009 15.800000000000004
    vertex 133.0988239897397 396.2397151960845 13.800000000000002
    vertex 133.0988239897397 396.2397151960845 15.800000000000004
  endloop
endfacet
facet normal -0.7406018340363223 0.6719441371289996 0.0
  outer loop
    vertex 138.9729510511743 390.91015070098996 15.800000000000004
    vertex 138.271300574342 390.1368072022064 13.800000000000002
    vertex 138.271300574342 390.1368072022064 15.800000000000004
  endloop
endfacet
facet normal -0.7406018340363223 0.6719441371289996 0.0
  outer loop
    vertex 138.271300574342 390.1368072022064 13.800000000000002
    vertex 138.9729510511743 390.91015070098996 15.800000000000004
    vertex 138.9729510511743 390.91015070098996 13.800000000000002
  endloop
endfacet
facet normal -1.0 -0.0 -0.0
  outer loop
    vertex 156.68506228204086 379.1882611991455 22.800000000000004
    vertex 156.68506228204086 282.1882611991455 15.800000000000002
    vertex 156.68506228204086 282.1882611991455 22.800000000000004
  endloop
endfacet
facet normal -1.0 -0.0 -0.0
  outer loop
    vertex 156.68506228204086 282.1882611991455 15.800000000000002
    vertex 156.68506228204086 379.1882611991455 22.800000000000004
    vertex 156.68506228204086 379.1882611991455 15.800000000000002
  endloop
endfacet
facet normal 1.0 0.0 0.0
  outer loop
    vertex 160.68506228204086 379.1882611991455 15.800000000000002
    vertex 160.68506228204086 282.1882611991455 22.800000000000004
    vertex 160.68506228204086 282.1882611991455 15.800000000000002
  endloop
endfacet
facet normal 1.0 0.0 0.0
  outer loop
    vertex 160.68506228204086 282.1882611991455 22.800000000000004
    vertex 160.68506228204086 379.1882611991455 15.800000000000002
    vertex 160.68506228204086 379.1882611991455 22.800000000000004
  endloop
endfacet
facet normal 0.30540793380025405 -0.9522216096959047 0.0
  outer loop
    vertex 134.9710412191375 397.1240170251247 15.800000000000004
    vertex 133.97672233223147 396.80510714774283 13.800000000000002
    vertex 134.9710412191375 397.1240170251247 13.800000000000002
  endloop
endfacet
facet normal 0.30540793380025405 -0.9522216096959047 0.0
  outer loop
    vertex 133.97672233223147 396.80510714774283 13.800000000000002
    vertex 134.9710412191375 397.1240170251247 15.800000000000004
    vertex 133.97672233223147 396.80510714774283 15.800000000000004
  endloop
endfacet
facet normal -1.0 -0.0 -0.0
  outer loop
    vertex 167.18506228204086 406.68826119914536 100.8
    vertex 167.18506228204086 278.6882611991456 15.800000000000002
    vertex 167.18506228204086 278.6882611991456 100.8
  endloop
endfacet
facet normal -1.0 -0.0 -0.0
  outer loop
    vertex 167.18506228204086 278.6882611991456 15.800000000000002
    vertex 167.18506228204086 406.68826119914536 100.8
    vertex 167.18506228204086 406.68826119914536 15.800000000000002
  endloop
endfacet
facet normal 0.0 -1.0 0.0
  outer loop
    vertex 167.18506228204086 406.68826119914536 100.8
    vertex 104.18506228204085 406.68826119914536 15.800000000000002
    vertex 167.18506228204086 406.68826119914536 15.800000000000002
  endloop
endfacet
facet normal 0.0 -1.0 0.0
  outer loop
    vertex 104.18506228204085 406.68826119914536 15.800000000000002
    vertex 167.18506228204086 406.68826119914536 100.8
    vertex 104.18506228204085 406.68826119914536 100.8
  endloop
endfacet
facet normal 0.998820834948737 0.0485483230638127 0.0
  outer loop
    vertex 131.69861183407602 393.51721837860936 13.800000000000002
    vertex 131.7493064560615 392.4742401362421 15.800000000000004
    vertex 131.7493064560615 392.4742401362421 13.800000000000002
  endloop
endfacet
facet normal 0.998820834948737 0.0485483230638127 0.0
  outer loop
    vertex 131.7493064560615 392.4742401362421 15.800000000000004
    vertex 131.69861183407602 393.51721837860936 13.800000000000002
    vertex 131.69861183407602 393.51721837860936 15.800000000000004
  endloop
endfacet
facet normal 1.0 0.0 0.0
  outer loop
    vertex 116.68506228204087 379.1882611991455 13.800000000000002
    vertex 116.68506228204087 282.1882611991455 15.800000000000002
    vertex 116.68506228204087 282.1882611991455 13.800000000000002
  endloop
endfacet
facet normal 1.0 0.0 0.0
  outer loop
    vertex 116.68506228204087 282.1882611991455 15.800000000000002
    vertex 116.68506228204087 379.1882611991455 13.800000000000002
    vertex 116.68506228204087 379.1882611991455 15.800000000000002
  endloop
endfacet
facet normal 1.0 0.0 0.0
  outer loop
    vertex 113.68506228204087 379.1882611991455 15.800000000000002
    vertex 113.68506228204087 282.1882611991455 22.800000000000015
    vertex 113.68506228204087 282.1882611991455 15.800000000000002
  endloop
endfacet
facet normal 1.0 0.0 0.0
  outer loop
    vertex 113.68506228204087 282.1882611991455 22.800000000000015
    vertex 113.68506228204087 379.1882611991455 15.800000000000002
    vertex 113.68506228204087 379.1882611991455 22.800000000000015
  endloop
endfacet
facet normal 0.0 1.0 0.0
  outer loop
    vertex 102.18506228204086 408.6882611991455 100.80000000000007
    vertex 169.18506228204086 408.6882611991455 13.800000000000002
    vertex 102.18506228204086 408.6882611991455 13.800000000000002
  endloop
endfacet
facet normal 0.0 1.0 0.0
  outer loop
    vertex 169.18506228204086 408.6882611991455 13.800000000000002
    vertex 102.18506228204086 408.6882611991455 100.80000000000007
    vertex 169.18506228204086 408.6882611991455 100.80000000000007
  endloop
endfacet
facet normal 0.0 0.0 1.0
  outer loop
    vertex 116.68506228204087 379.1882611991455 15.800000000000002
    vertex 131.7493064560615 392.4742401362421 15.800000000000004
    vertex 131.69861183407602 393.51721837860936 15.800000000000004
  endloop
endfacet
facet normal 0.0 0.0 1.0
  outer loop
    vertex 131.7493064560615 392.4742401362421 15.800000000000004
    vertex 116.68506228204087 379.1882611991455 15.800000000000002
    vertex 132.06821633344347 391.47992124933603 15.800000000000004
  endloop
endfacet
facet normal 0.0 0.0 1.0
  outer loop
    vertex 132.06821633344347 391.47992124933603 15.800000000000004
    vertex 116.68506228204087 379.1882611991455 15.800000000000002
    vertex 132.63360828510181 390.6020229068443 15.800000000000004
  endloop
endfacet
facet normal 0.0 0.0 1.0
  outer loop
    vertex 132.63360828510181 390.6020229068443 15.800000000000004
    vertex 116.68506228204087 379.1882611991455 15.800000000000002
    vertex 133.4069517838854 389.900372430012 15.800000000000004
  endloop
endfacet
facet normal 0.0 0.0 1.0
  outer loop
    vertex 133.4069517838854 389.900372430012 15.800000000000004
    vertex 116.68506228204087 379.1882611991455 15.800000000000002
    vertex 134.33554474836265 389.422786139303 15.800000000000004
  endloop
endfacet
facet normal 0.0 0.0 1.0
  outer loop
    vertex 134.33554474836265 389.422786139303 15.800000000000004
    vertex 116.68506228204087 379.1882611991455 15.800000000000002
    vertex 154.68506228204086 379.1882611991455 15.800000000000002
  endloop
endfacet
facet normal 0.0 0.0 1.0
  outer loop
    vertex 134.33554474836265 389.422786139303 15.800000000000004
    vertex 154.68506228204086 379.1882611991455 15.800000000000002
    vertex 135.35610510257692 389.2018107511806 15.800000000000004
  endloop
endfacet
facet normal 0.0 0.0 1.0
  outer loop
    vertex 135.35610510257692 389.2018107511806 15.800000000000004
    vertex 154.68506228204086 379.1882611991455 15.800000000000002
    vertex 136.39908334494422 389.2525053731661 15.800000000000004
  endloop
endfacet
facet normal 0.0 0.0 1.0
  outer loop
    vertex 136.39908334494422 389.2525053731661 15.800000000000004
    vertex 154.68506228204086 379.1882611991455 15.800000000000002
    vertex 137.39340223185025 389.57141525054806 15.800000000000004
  endloop
endfacet
facet normal 0.0 0.0 1.0
  outer loop
    vertex 137.39340223185025 389.57141525054806 15.800000000000004
    vertex 154.68506228204086 379.1882611991455 15.800000000000002
    vertex 138.271300574342 390.1368072022064 15.800000000000004
  endloop
endfacet
facet normal 0.0 0.0 1.0
  outer loop
    vertex 138.271300574342 390.1368072022064 15.800000000000004
    vertex 154.68506228204086 379.1882611991455 15.800000000000002
    vertex 138.9729510511743 390.91015070098996 15.800000000000004
  endloop
endfacet
facet normal 0.0 0.0 1.0
  outer loop
    vertex 138.9729510511743 390.91015070098996 15.800000000000004
    vertex 154.68506228204086 379.1882611991455 15.800000000000002
    vertex 139.45053734188326 391.83874366546723 15.800000000000004
  endloop
endfacet
facet normal 0.0 0.0 1.0
  outer loop
    vertex 139.45053734188326 391.83874366546723 15.800000000000004
    vertex 154.68506228204086 379.1882611991455 15.800000000000002
    vertex 139.6715127300057 392.8593040196815 15.800000000000004
  endloop
endfacet
facet normal 0.0 0.0 1.0
  outer loop
    vertex 104.18506228204085 278.6882611991456 15.800000000000002
    vertex 108.68506228204089 282.1882611991455 15.800000000000002
    vertex 104.18506228204085 406.68826119914536 15.800000000000002
  endloop
endfacet
facet normal 0.0 0.0 1.0
  outer loop
    vertex 108.68506228204089 282.1882611991455 15.800000000000002
    vertex 104.18506228204085 278.6882611991456 15.800000000000002
    vertex 167.18506228204086 278.6882611991456 15.800000000000002
  endloop
endfacet
facet normal 0.0 0.0 1.0
  outer loop
    vertex 108.68506228204089 282.1882611991455 15.800000000000002
    vertex 167.18506228204086 278.6882611991456 15.800000000000002
    vertex 113.68506228204087 282.1882611991455 15.800000000000002
  endloop
endfacet
facet normal 0.0 0.0 1.0
  outer loop
    vertex 113.68506228204087 282.1882611991455 15.800000000000002
    vertex 167.18506228204086 278.6882611991456 15.800000000000002
    vertex 116.68506228204087 282.1882611991455 15.800000000000002
  endloop
endfacet
facet normal 0.0 0.0 1.0
  outer loop
    vertex 113.68506228204087 282.1882611991455 15.800000000000002
    vertex 116.68506228204087 282.1882611991455 15.800000000000002
    vertex 113.68506228204087 379.1882611991455 15.800000000000002
  endloop
endfacet
facet normal 0.0 0.0 1.0
  outer loop
    vertex 116.68506228204087 282.1882611991455 15.800000000000002
    vertex 167.18506228204086 278.6882611991456 15.800000000000002
    vertex 154.68506228204086 282.1882611991455 15.800000000000002
  endloop
endfacet
facet normal 0.0 0.0 1.0
  outer loop
    vertex 154.68506228204086 282.1882611991455 15.800000000000002
    vertex 167.18506228204086 278.6882611991456 15.800000000000002
    vertex 156.68506228204086 282.1882611991455 15.800000000000002
  endloop
endfacet
facet normal 0.0 0.0 1.0
  outer loop
    vertex 154.68506228204086 282.1882611991455 15.800000000000002
    vertex 156.68506228204086 282.1882611991455 15.800000000000002
    vertex 154.68506228204086 379.1882611991455 15.800000000000002
  endloop
endfacet
facet normal 0.0 0.0 1.0
  outer loop
    vertex 156.68506228204086 282.1882611991455 15.800000000000002
    vertex 167.18506228204086 278.6882611991456 15.800000000000002
    vertex 160.68506228204086 282.1882611991455 15.800000000000002
  endloop
endfacet
facet normal 0.0 0.0 1.0
  outer loop
    vertex 160.68506228204086 282.1882611991455 15.800000000000002
    vertex 167.18506228204086 278.6882611991456 15.800000000000002
    vertex 160.68506228204086 379.1882611991455 15.800000000000002
  endloop
endfacet
facet normal 0.0 0.0 1.0
  outer loop
    vertex 104.18506228204085 406.68826119914536 15.800000000000002
    vertex 134.9710412191375 397.1240170251247 15.800000000000004
    vertex 167.18506228204086 406.68826119914536 15.800000000000002
  endloop
endfacet
facet normal 0.0 0.0 1.0
  outer loop
    vertex 134.9710412191375 397.1240170251247 15.800000000000004
    vertex 104.18506228204085 406.68826119914536 15.800000000000002
    vertex 133.97672233223147 396.80510714774283 15.800000000000004
  endloop
endfacet
facet normal 0.0 0.0 1.0
  outer loop
    vertex 133.97672233223147 396.80510714774283 15.800000000000004
    vertex 104.18506228204085 406.68826119914536 15.800000000000002
    vertex 133.0988239897397 396.2397151960845 15.800000000000004
  endloop
endfacet
facet normal 0.0 0.0 1.0
  outer loop
    vertex 133.0988239897397 396.2397151960845 15.800000000000004
    vertex 104.18506228204085 406.68826119914536 15.800000000000002
    vertex 108.68506228204089 379.1882611991455 15.800000000000002
  endloop
endfacet
facet normal 0.0 0.0 1.0
  outer loop
    vertex 108.68506228204089 379.1882611991455 15.800000000000002
    vertex 104.18506228204085 406.68826119914536 15.800000000000002
    vertex 108.68506228204089 282.1882611991455 15.800000000000002
  endloop
endfacet
facet normal 0.0 0.0 1.0
  outer loop
    vertex 133.0988239897397 396.2397151960845 15.800000000000004
    vertex 108.68506228204089 379.1882611991455 15.800000000000002
    vertex 113.68506228204087 379.1882611991455 15.800000000000002
  endloop
endfacet
facet normal 0.0 0.0 1.0
  outer loop
    vertex 133.0988239897397 396.2397151960845 15.800000000000004
    vertex 113.68506228204087 379.1882611991455 15.800000000000002
    vertex 116.68506228204087 379.1882611991455 15.800000000000002
  endloop
endfacet
facet normal 0.0 0.0 1.0
  outer loop
    vertex 116.68506228204087 379.1882611991455 15.800000000000002
    vertex 113.68506228204087 379.1882611991455 15.800000000000002
    vertex 116.68506228204087 282.1882611991455 15.800000000000002
  endloop
endfacet
facet normal 0.0 0.0 1.0
  outer loop
    vertex 133.0988239897397 396.2397151960845 15.800000000000004
    vertex 116.68506228204087 379.1882611991455 15.800000000000002
    vertex 132.39717351290741 395.4663716973009 15.800000000000004
  endloop
endfacet
facet normal 0.0 0.0 1.0
  outer loop
    vertex 132.39717351290741 395.4663716973009 15.800000000000004
    vertex 116.68506228204087 379.1882611991455 15.800000000000002
    vertex 131.91958722219846 394.5377787328236 15.800000000000004
  endloop
endfacet
facet normal 0.0 0.0 1.0
  outer loop
    vertex 131.91958722219846 394.5377787328236 15.800000000000004
    vertex 116.68506228204087 379.1882611991455 15.800000000000002
    vertex 131.69861183407602 393.51721837860936 15.800000000000004
  endloop
endfacet
facet normal 0.0 0.0 1.0
  outer loop
    vertex 167.18506228204086 406.68826119914536 15.800000000000002
    vertex 134.9710412191375 397.1240170251247 15.800000000000004
    vertex 136.0140194615048 397.17471164711026 15.800000000000004
  endloop
endfacet
facet normal 0.0 0.0 1.0
  outer loop
    vertex 167.18506228204086 406.68826119914536 15.800000000000002
    vertex 136.0140194615048 397.17471164711026 15.800000000000004
    vertex 137.03457981571907 396.9537362589878 15.800000000000004
  endloop
endfacet
facet normal 0.0 0.0 1.0
  outer loop
    vertex 167.18506228204086 406.68826119914536 15.800000000000002
    vertex 137.03457981571907 396.9537362589878 15.800000000000004
    vertex 137.96317278019632 396.4761499682789 15.800000000000004
  endloop
endfacet
facet normal 0.0 0.0 1.0
  outer loop
    vertex 167.18506228204086 406.68826119914536 15.800000000000002
    vertex 137.96317278019632 396.4761499682789 15.800000000000004
    vertex 138.7365162789799 395.77449949144653 15.800000000000004
  endloop
endfacet
facet normal 0.0 0.0 1.0
  outer loop
    vertex 167.18506228204086 406.68826119914536 15.800000000000002
    vertex 138.7365162789799 395.77449949144653 15.800000000000004
    vertex 139.30190823063825 394.8966011489548 15.800000000000004
  endloop
endfacet
facet normal 0.0 0.0 1.0
  outer loop
    vertex 167.18506228204086 406.68826119914536 15.800000000000002
    vertex 139.30190823063825 394.8966011489548 15.800000000000004
    vertex 139.62081810802022 393.9022822620488 15.800000000000004
  endloop
endfacet
facet normal 0.0 0.0 1.0
  outer loop
    vertex 167.18506228204086 406.68826119914536 15.800000000000002
    vertex 139.62081810802022 393.9022822620488 15.800000000000004
    vertex 139.6715127300057 392.8593040196815 15.800000000000004
  endloop
endfacet
facet normal 0.0 0.0 1.0
  outer loop
    vertex 167.18506228204086 406.68826119914536 15.800000000000002
    vertex 139.6715127300057 392.8593040196815 15.800000000000004
    vertex 154.68506228204086 379.1882611991455 15.800000000000002
  endloop
endfacet
facet normal 0.0 0.0 1.0
  outer loop
    vertex 167.18506228204086 406.68826119914536 15.800000000000002
    vertex 154.68506228204086 379.1882611991455 15.800000000000002
    vertex 156.68506228204086 379.1882611991455 15.800000000000002
  endloop
endfacet
facet normal 0.0 0.0 1.0
  outer loop
    vertex 156.68506228204086 379.1882611991455 15.800000000000002
    vertex 154.68506228204086 379.1882611991455 15.800000000000002
    vertex 156.68506228204086 282.1882611991455 15.800000000000002
  endloop
endfacet
facet normal 0.0 0.0 1.0
  outer loop
    vertex 167.18506228204086 406.68826119914536 15.800000000000002
    vertex 156.68506228204086 379.1882611991455 15.800000000000002
    vertex 160.68506228204086 379.1882611991455 15.800000000000002
  endloop
endfacet
facet normal 0.0 0.0 1.0
  outer loop
    vertex 167.18506228204086 406.68826119914536 15.800000000000002
    vertex 160.68506228204086 379.1882611991455 15.800000000000002
    vertex 167.18506228204086 278.6882611991456 15.800000000000002
  endloop
endfacet
facet normal -1.0 -0.0 -0.0
  outer loop
    vertex 108.68506228204089 379.1882611991455 22.800000000000015
    vertex 108.68506228204089 282.1882611991455 15.800000000000002
    vertex 108.68506228204089 282.1882611991455 22.800000000000015
  endloop
endfacet
facet normal -1.0 -0.0 -0.0
  outer loop
    vertex 108.68506228204089 282.1882611991455 15.800000000000002
    vertex 108.68506228204089 379.1882611991455 22.800000000000015
    vertex 108.68506228204089 379.1882611991455 15.800000000000002
  endloop
endfacet
facet normal 0.0 1.0 0.0
  outer loop
    vertex 108.68506228204089 379.1882611991455 22.800000000000015
    vertex 113.68506228204087 379.1882611991455 15.800000000000002
    vertex 108.68506228204089 379.1882611991455 15.800000000000002
  endloop
endfacet
facet normal 0.0 1.0 0.0
  outer loop
    vertex 113.68506228204087 379.1882611991455 15.800000000000002
    vertex 108.68506228204089 379.1882611991455 22.800000000000015
    vertex 113.68506228204087 379.1882611991455 22.800000000000015
  endloop
endfacet
facet normal 0.0485483230638127 -0.998820834948737 0.0
  outer loop
    vertex 136.0140194615048 397.17471164711026 15.800000000000004
    vertex 134.9710412191375 397.1240170251247 13.800000000000002
    vertex 136.0140194615048 397.17471164711026 13.800000000000002
  endloop
endfacet
facet normal 0.0485483230638127 -0.998820834948737 0.0
  outer loop
    vertex 134.9710412191375 397.1240170251247 13.800000000000002
    vertex 136.0140194615048 397.17471164711026 15.800000000000004
    vertex 134.9710412191375 397.1240170251247 15.800000000000004
  endloop
endfacet
facet normal 0.9773520709292977 -0.21161977565958592 0.0
  outer loop
    vertex 131.91958722219846 394.5377787328236 13.800000000000002
    vertex 131.69861183407602 393.51721837860936 15.800000000000004
    vertex 131.69861183407602 393.51721837860936 13.800000000000002
  endloop
endfacet
facet normal 0.9773520709292977 -0.21161977565958592 0.0
  outer loop
    vertex 131.69861183407602 393.51721837860936 15.800000000000004
    vertex 131.91958722219846 394.5377787328236 13.800000000000002
    vertex 131.91958722219846 394.5377787328236 15.800000000000004
  endloop
endfacet
facet normal 0.5414544985587703 -0.8407300553628798 0.0
  outer loop
    vertex 133.97672233223147 396.80510714774283 15.800000000000004
    vertex 133.0988239897397 396.2397151960845 13.800000000000002
    vertex 133.97672233223147 396.80510714774283 13.800000000000002
  endloop
endfacet
facet normal 0.5414544985587703 -0.8407300553628798 0.0
  outer loop
    vertex 133.0988239897397 396.2397151960845 13.800000000000002
    vertex 133.97672233223147 396.80510714774283 15.800000000000004
    vertex 133.0988239897397 396.2397151960845 15.800000000000004
  endloop
endfacet
facet normal 0.0 0.0 -1.0
  outer loop
    vertex 102.18506228204086 408.6882611991455 13.800000000000002
    vertex 116.68506228204087 379.1882611991455 13.800000000000002
    vertex 102.18506228204086 276.6882611991456 13.800000000000002
  endloop
endfacet
facet normal 0.0 0.0 -1.0
  outer loop
    vertex 116.68506228204087 379.1882611991455 13.800000000000002
    vertex 102.18506228204086 408.6882611991455 13.800000000000002
    vertex 133.0988239897397 396.2397151960845 13.800000000000002
  endloop
endfacet
facet normal 0.0 0.0 -1.0
  outer loop
    vertex 133.0988239897397 396.2397151960845 13.800000000000002
    vertex 102.18506228204086 408.6882611991455 13.800000000000002
    vertex 133.97672233223147 396.80510714774283 13.800000000000002
  endloop
endfacet
facet normal 0.0 0.0 -1.0
  outer loop
    vertex 133.97672233223147 396.80510714774283 13.800000000000002
    vertex 102.18506228204086 408.6882611991455 13.800000000000002
    vertex 169.18506228204086 408.6882611991455 13.800000000000002
  endloop
endfacet
facet normal 0.0 0.0 -1.0
  outer loop
    vertex 116.68506228204087 379.1882611991455 13.800000000000002
    vertex 133.0988239897397 396.2397151960845 13.800000000000002
    vertex 132.39717351290741 395.4663716973009 13.800000000000002
  endloop
endfacet
facet normal 0.0 0.0 -1.0
  outer loop
    vertex 116.68506228204087 379.1882611991455 13.800000000000002
    vertex 132.39717351290741 395.4663716973009 13.800000000000002
    vertex 131.91958722219846 394.5377787328236 13.800000000000002
  endloop
endfacet
facet normal 0.0 0.0 -1.0
  outer loop
    vertex 116.68506228204087 379.1882611991455 13.800000000000002
    vertex 131.91958722219846 394.5377787328236 13.800000000000002
    vertex 131.69861183407602 393.51721837860936 13.800000000000002
  endloop
endfacet
facet normal 0.0 0.0 -1.0
  outer loop
    vertex 133.97672233223147 396.80510714774283 13.800000000000002
    vertex 169.18506228204086 408.6882611991455 13.800000000000002
    vertex 134.9710412191375 397.1240170251247 13.800000000000002
  endloop
endfacet
facet normal 0.0 0.0 -1.0
  outer loop
    vertex 134.9710412191375 397.1240170251247 13.800000000000002
    vertex 169.18506228204086 408.6882611991455 13.800000000000002
    vertex 136.0140194615048 397.17471164711026 13.800000000000002
  endloop
endfacet
facet normal 0.0 0.0 -1.0
  outer loop
    vertex 136.0140194615048 397.17471164711026 13.800000000000002
    vertex 169.18506228204086 408.6882611991455 13.800000000000002
    vertex 137.03457981571907 396.9537362589878 13.800000000000002
  endloop
endfacet
facet normal 0.0 0.0 -1.0
  outer loop
    vertex 137.03457981571907 396.9537362589878 13.800000000000002
    vertex 169.18506228204086 408.6882611991455 13.800000000000002
    vertex 137.96317278019632 396.4761499682789 13.800000000000002
  endloop
endfacet
facet normal 0.0 0.0 -1.0
  outer loop
    vertex 137.96317278019632 396.4761499682789 13.800000000000002
    vertex 169.18506228204086 408.6882611991455 13.800000000000002
    vertex 138.7365162789799 395.77449949144653 13.800000000000002
  endloop
endfacet
facet normal 0.0 0.0 -1.0
  outer loop
    vertex 138.7365162789799 395.77449949144653 13.800000000000002
    vertex 169.18506228204086 408.6882611991455 13.800000000000002
    vertex 139.30190823063825 394.8966011489548 13.800000000000002
  endloop
endfacet
facet normal 0.0 0.0 -1.0
  outer loop
    vertex 139.30190823063825 394.8966011489548 13.800000000000002
    vertex 169.18506228204086 408.6882611991455 13.800000000000002
    vertex 139.62081810802022 393.9022822620488 13.800000000000002
  endloop
endfacet
facet normal 0.0 0.0 -1.0
  outer loop
    vertex 139.62081810802022 393.9022822620488 13.800000000000002
    vertex 169.18506228204086 408.6882611991455 13.800000000000002
    vertex 139.6715127300057 392.8593040196815 13.800000000000002
  endloop
endfacet
facet normal 0.0 0.0 -1.0
  outer loop
    vertex 139.6715127300057 392.8593040196815 13.800000000000002
    vertex 169.18506228204086 408.6882611991455 13.800000000000002
    vertex 154.68506228204086 379.1882611991455 13.800000000000002
  endloop
endfacet
facet normal 0.0 0.0 -1.0
  outer loop
    vertex 154.68506228204086 379.1882611991455 13.800000000000002
    vertex 169.18506228204086 408.6882611991455 13.800000000000002
    vertex 154.68506228204086 282.1882611991455 13.800000000000002
  endloop
endfacet
facet normal 0.0 0.0 -1.0
  outer loop
    vertex 102.18506228204086 276.6882611991456 13.800000000000002
    vertex 116.68506228204087 282.1882611991455 13.800000000000002
    vertex 169.18506228204086 276.6882611991456 13.800000000000002
  endloop
endfacet
facet normal 0.0 0.0 -1.0
  outer loop
    vertex 116.68506228204087 282.1882611991455 13.800000000000002
    vertex 102.18506228204086 276.6882611991456 13.800000000000002
    vertex 116.68506228204087 379.1882611991455 13.800000000000002
  endloop
endfacet
facet normal 0.0 0.0 -1.0
  outer loop
    vertex 169.18506228204086 276.6882611991456 13.800000000000002
    vertex 116.68506228204087 282.1882611991455 13.800000000000002
    vertex 154.68506228204086 282.1882611991455 13.800000000000002
  endloop
endfacet
facet normal 0.0 0.0 -1.0
  outer loop
    vertex 169.18506228204086 276.6882611991456 13.800000000000002
    vertex 154.68506228204086 282.1882611991455 13.800000000000002
    vertex 169.18506228204086 408.6882611991455 13.800000000000002
  endloop
endfacet
facet normal 0.0 0.0 -1.0
  outer loop
    vertex 116.68506228204087 379.1882611991455 13.800000000000002
    vertex 134.33554474836265 389.422786139303 13.800000000000002
    vertex 154.68506228204086 379.1882611991455 13.800000000000002
  endloop
endfacet
facet normal 0.0 0.0 -1.0
  outer loop
    vertex 134.33554474836265 389.422786139303 13.800000000000002
    vertex 116.68506228204087 379.1882611991455 13.800000000000002
    vertex 133.4069517838854 389.900372430012 13.800000000000002
  endloop
endfacet
facet normal 0.0 0.0 -1.0
  outer loop
    vertex 133.4069517838854 389.900372430012 13.800000000000002
    vertex 116.68506228204087 379.1882611991455 13.800000000000002
    vertex 132.63360828510181 390.6020229068443 13.800000000000002
  endloop
endfacet
facet normal 0.0 0.0 -1.0
  outer loop
    vertex 132.63360828510181 390.6020229068443 13.800000000000002
    vertex 116.68506228204087 379.1882611991455 13.800000000000002
    vertex 132.06821633344347 391.47992124933603 13.800000000000002
  endloop
endfacet
facet normal 0.0 0.0 -1.0
  outer loop
    vertex 132.06821633344347 391.47992124933603 13.800000000000002
    vertex 116.68506228204087 379.1882611991455 13.800000000000002
    vertex 131.7493064560615 392.4742401362421 13.800000000000002
  endloop
endfacet
facet normal 0.0 0.0 -1.0
  outer loop
    vertex 131.7493064560615 392.4742401362421 13.800000000000002
    vertex 116.68506228204087 379.1882611991455 13.800000000000002
    vertex 131.69861183407602 393.51721837860936 13.800000000000002
  endloop
endfacet
facet normal 0.0 0.0 -1.0
  outer loop
    vertex 154.68506228204086 379.1882611991455 13.800000000000002
    vertex 134.33554474836265 389.422786139303 13.800000000000002
    vertex 135.35610510257692 389.2018107511806 13.800000000000002
  endloop
endfacet
facet normal 0.0 0.0 -1.0
  outer loop
    vertex 154.68506228204086 379.1882611991455 13.800000000000002
    vertex 135.35610510257692 389.2018107511806 13.800000000000002
    vertex 136.39908334494422 389.2525053731661 13.800000000000002
  endloop
endfacet
facet normal 0.0 0.0 -1.0
  outer loop
    vertex 154.68506228204086 379.1882611991455 13.800000000000002
    vertex 136.39908334494422 389.2525053731661 13.800000000000002
    vertex 137.39340223185025 389.57141525054806 13.800000000000002
  endloop
endfacet
facet normal 0.0 0.0 -1.0
  outer loop
    vertex 154.68506228204086 379.1882611991455 13.800000000000002
    vertex 137.39340223185025 389.57141525054806 13.800000000000002
    vertex 138.271300574342 390.1368072022064 13.800000000000002
  endloop
endfacet
facet normal 0.0 0.0 -1.0
  outer loop
    vertex 154.68506228204086 379.1882611991455 13.800000000000002
    vertex 138.271300574342 390.1368072022064 13.800000000000002
    vertex 138.9729510511743 390.91015070098996 13.800000000000002
  endloop
endfacet
facet normal 0.0 0.0 -1.0
  outer loop
    vertex 154.68506228204086 379.1882611991455 13.800000000000002
    vertex 138.9729510511743 390.91015070098996 13.800000000000002
    vertex 139.45053734188326 391.83874366546723 13.800000000000002
  endloop
endfacet
facet normal 0.0 0.0 -1.0
  outer loop
    vertex 154.68506228204086 379.1882611991455 13.800000000000002
    vertex 139.45053734188326 391.83874366546723 13.800000000000002
    vertex 139.6715127300057 392.8593040196815 13.800000000000002
  endloop
endfacet
facet normal 0.9522216096958921 0.30540793380029324 0.0
  outer loop
    vertex 131.7493064560615 392.4742401362421 13.800000000000002
    vertex 132.06821633344347 391.47992124933603 15.800000000000004
    vertex 132.06821633344347 391.47992124933603 13.800000000000002
  endloop
endfacet
facet normal 0.9522216096958921 0.30540793380029324 0.0
  outer loop
    vertex 132.06821633344347 391.47992124933603 15.800000000000004
    vertex 131.7493064560615 392.4742401362421 13.800000000000002
    vertex 131.7493064560615 392.4742401362421 15.800000000000004
  endloop
endfacet
facet normal -1.0 0.0 0.0
  outer loop
    vertex 154.68506228204086 379.1882611991455 15.800000000000002
    vertex 154.68506228204086 282.1882611991455 13.800000000000002
    vertex 154.68506228204086 282.1882611991455 15.800000000000002
  endloop
endfacet
facet normal -1.0 0.0 0.0
  outer loop
    vertex 154.68506228204086 282.1882611991455 13.800000000000002
    vertex 154.68506228204086 379.1882611991455 15.800000000000002
    vertex 154.68506228204086 379.1882611991455 13.800000000000002
  endloop
endfacet
facet normal 1.0 0.0 0.0
  outer loop
    vertex 169.18506228204086 408.6882611991455 13.800000000000002
    vertex 169.18506228204086 276.6882611991456 100.80000000000007
    vertex 169.18506228204086 276.6882611991456 13.800000000000002
  endloop
endfacet
facet normal 1.0 0.0 0.0
  outer loop
    vertex 169.18506228204086 276.6882611991456 100.80000000000007
    vertex 169.18506228204086 408.6882611991455 13.800000000000002
    vertex 169.18506228204086 408.6882611991455 100.80000000000007
  endloop
endfacet
facet normal 0.8407300553628895 0.5414544985587549 0.0
  outer loop
    vertex 132.06821633344347 391.47992124933603 13.800000000000002
    vertex 132.63360828510181 390.6020229068443 15.800000000000004
    vertex 132.63360828510181 390.6020229068443 13.800000000000002
  endloop
endfacet
facet normal 0.8407300553628895 0.5414544985587549 0.0
  outer loop
    vertex 132.63360828510181 390.6020229068443 15.800000000000004
    vertex 132.06821633344347 391.47992124933603 13.800000000000002
    vertex 132.06821633344347 391.47992124933603 15.800000000000004
  endloop
endfacet
facet normal 0.0 1.0 0.0
  outer loop
    vertex 182.99034628204086 406.4882611991453 20.799999999999923
    vertex 245.59034628204088 406.4882611991453 15.799999999999931
    vertex 182.99034628204086 406.4882611991453 15.799999999999931
  endloop
endfacet
facet normal 0.0 1.0 0.0
  outer loop
    vertex 245.59034628204088 406.4882611991453 15.799999999999931
    vertex 182.99034628204086 406.4882611991453 20.799999999999923
    vertex 245.59034628204088 406.4882611991453 20.799999999999923
  endloop
endfacet
facet normal -1.0 -0.0 -0.0
  outer loop
    vertex 182.99034628204086 406.4882611991453 20.799999999999923
    vertex 182.99034628204086 278.88826119914563 15.799999999999931
    vertex 182.99034628204086 278.88826119914563 20.799999999999923
  endloop
endfacet
facet normal -1.0 -0.0 -0.0
  outer loop
    vertex 182.99034628204086 278.88826119914563 15.799999999999931
    vertex 182.99034628204086 406.4882611991453 20.799999999999923
    vertex 182.99034628204086 406.4882611991453 15.799999999999931
  endloop
endfacet
facet normal 0.0 0.0 1.0
  outer loop
    vertex 184.99034628204086 280.88826119914563 15.799999999999931
    vertex 196.79034628204087 296.6882611991456 15.799999999999931
    vertex 184.99034628204086 404.4882611991453 15.799999999999931
  endloop
endfacet
facet normal 0.0 0.0 1.0
  outer loop
    vertex 196.79034628204087 296.6882611991456 15.799999999999931
    vertex 184.99034628204086 280.88826119914563 15.799999999999931
    vertex 196.9266429768846 295.65298501873554 15.799999999999931
  endloop
endfacet
facet normal 0.0 0.0 1.0
  outer loop
    vertex 196.9266429768846 295.65298501873554 15.799999999999931
    vertex 184.99034628204086 280.88826119914563 15.799999999999931
    vertex 197.32624466690314 294.6882611991456 15.799999999999931
  endloop
endfacet
facet normal 0.0 0.0 1.0
  outer loop
    vertex 197.32624466690314 294.6882611991456 15.799999999999931
    vertex 184.99034628204086 280.88826119914563 15.799999999999931
    vertex 197.9619191572947 293.8598340743994 15.799999999999931
  endloop
endfacet
facet normal 0.0 0.0 1.0
  outer loop
    vertex 197.9619191572947 293.8598340743994 15.799999999999931
    vertex 184.99034628204086 280.88826119914563 15.799999999999931
    vertex 198.79034628204087 293.22415958400785 15.799999999999931
  endloop
endfacet
facet normal 0.0 0.0 1.0
  outer loop
    vertex 198.79034628204087 293.22415958400785 15.799999999999931
    vertex 184.99034628204086 280.88826119914563 15.799999999999931
    vertex 199.7550701016308 292.8245578939893 15.799999999999931
  endloop
endfacet
facet normal 0.0 0.0 1.0
  outer loop
    vertex 199.7550701016308 292.8245578939893 15.799999999999931
    vertex 184.99034628204086 280.88826119914563 15.799999999999931
    vertex 243.59034628204088 280.88826119914563 15.799999999999931
  endloop
endfacet
facet normal 0.0 0.0 1.0
  outer loop
    vertex 199.7550701016308 292.8245578939893 15.799999999999931
    vertex 243.59034628204088 280.88826119914563 15.799999999999931
    vertex 200.79034628204087 292.6882611991456 15.799999999999931
  endloop
endfacet
facet normal 0.0 0.0 1.0
  outer loop
    vertex 200.79034628204087 292.6882611991456 15.799999999999931
    vertex 243.59034628204088 280.88826119914563 15.799999999999931
    vertex 201.82562246245095 292.8245578939893 15.799999999999931
  endloop
endfacet
facet normal 0.0 0.0 1.0
  outer loop
    vertex 201.82562246245095 292.8245578939893 15.799999999999931
    vertex 243.59034628204088 280.88826119914563 15.799999999999931
    vertex 202.79034628204087 293.22415958400785 15.799999999999931
  endloop
endfacet
facet normal 0.0 0.0 1.0
  outer loop
    vertex 202.79034628204087 293.22415958400785 15.799999999999931
    vertex 243.59034628204088 280.88826119914563 15.799999999999931
    vertex 203.61877340678706 293.8598340743994 15.799999999999931
  endloop
endfacet
facet normal 0.0 0.0 1.0
  outer loop
    vertex 203.61877340678706 293.8598340743994 15.799999999999931
    vertex 243.59034628204088 280.88826119914563 15.799999999999931
    vertex 204.25444789717864 294.6882611991456 15.799999999999931
  endloop
endfacet
facet normal 0.0 0.0 1.0
  outer loop
    vertex 204.25444789717864 294.6882611991456 15.799999999999931
    vertex 243.59034628204088 280.88826119914563 15.799999999999931
    vertex 204.65404958719716 295.65298501873554 15.799999999999931
  endloop
endfacet
facet normal 0.0 0.0 1.0
  outer loop
    vertex 204.65404958719716 295.65298501873554 15.799999999999931
    vertex 243.59034628204088 280.88826119914563 15.799999999999931
    vertex 204.79034628204084 296.6882611991456 15.799999999999931
  endloop
endfacet
facet normal 0.0 0.0 1.0
  outer loop
    vertex 204.79034628204084 296.6882611991456 15.799999999999931
    vertex 243.59034628204088 280.88826119914563 15.799999999999931
    vertex 216.8903462820409 369.9882611991453 15.799999999999955
  endloop
endfacet
facet normal 0.0 0.0 1.0
  outer loop
    vertex 216.8903462820409 369.9882611991453 15.799999999999955
    vertex 243.59034628204088 280.88826119914563 15.799999999999931
    vertex 216.8903462820409 384.48826119914537 15.799999999999955
  endloop
endfacet
facet normal 0.0 0.0 1.0
  outer loop
    vertex 184.99034628204086 404.4882611991453 15.799999999999931
    vertex 200.79034628204087 384.48826119914537 15.799999999999955
    vertex 243.59034628204088 404.4882611991453 15.799999999999931
  endloop
endfacet
facet normal 0.0 0.0 1.0
  outer loop
    vertex 200.79034628204087 384.48826119914537 15.799999999999955
    vertex 184.99034628204086 404.4882611991453 15.799999999999931
    vertex 196.79034628204087 296.6882611991456 15.799999999999931
  endloop
endfacet
facet normal 0.0 0.0 1.0
  outer loop
    vertex 200.79034628204087 384.48826119914537 15.799999999999955
    vertex 196.79034628204087 296.6882611991456 15.799999999999931
    vertex 196.9266429768846 297.7235373795557 15.799999999999931
  endloop
endfacet
facet normal 0.0 0.0 1.0
  outer loop
    vertex 200.79034628204087 384.48826119914537 15.799999999999955
    vertex 196.9266429768846 297.7235373795557 15.799999999999931
    vertex 197.32624466690314 298.6882611991456 15.799999999999931
  endloop
endfacet
facet normal 0.0 0.0 1.0
  outer loop
    vertex 200.79034628204087 384.48826119914537 15.799999999999955
    vertex 197.32624466690314 298.6882611991456 15.799999999999931
    vertex 197.9619191572947 299.5166883238918 15.799999999999931
  endloop
endfacet
facet normal 0.0 0.0 1.0
  outer loop
    vertex 200.79034628204087 384.48826119914537 15.799999999999955
    vertex 197.9619191572947 299.5166883238918 15.799999999999931
    vertex 198.79034628204087 300.1523628142834 15.799999999999931
  endloop
endfacet
facet normal 0.0 0.0 1.0
  outer loop
    vertex 200.79034628204087 384.48826119914537 15.799999999999955
    vertex 198.79034628204087 300.1523628142834 15.799999999999931
    vertex 199.7550701016308 300.55196450430185 15.799999999999931
  endloop
endfacet
facet normal 0.0 0.0 1.0
  outer loop
    vertex 200.79034628204087 384.48826119914537 15.799999999999955
    vertex 199.7550701016308 300.55196450430185 15.799999999999931
    vertex 200.79034628204087 300.6882611991456 15.799999999999931
  endloop
endfacet
facet normal 0.0 0.0 1.0
  outer loop
    vertex 200.79034628204087 384.48826119914537 15.799999999999955
    vertex 200.79034628204087 300.6882611991456 15.799999999999931
    vertex 200.79034628204087 369.9882611991453 15.799999999999955
  endloop
endfacet
facet normal 0.0 0.0 1.0
  outer loop
    vertex 243.59034628204088 404.4882611991453 15.799999999999931
    vertex 200.79034628204087 384.48826119914537 15.799999999999955
    vertex 216.8903462820409 384.48826119914537 15.799999999999955
  endloop
endfacet
facet normal 0.0 0.0 1.0
  outer loop
    vertex 243.59034628204088 404.4882611991453 15.799999999999931
    vertex 216.8903462820409 384.48826119914537 15.799999999999955
    vertex 243.59034628204088 280.88826119914563 15.799999999999931
  endloop
endfacet
facet normal 0.0 0.0 1.0
  outer loop
    vertex 201.82562246245095 300.55196450430185 15.799999999999931
    vertex 200.79034628204087 369.9882611991453 15.799999999999955
    vertex 200.79034628204087 300.6882611991456 15.799999999999931
  endloop
endfacet
facet normal 0.0 0.0 1.0
  outer loop
    vertex 200.79034628204087 369.9882611991453 15.799999999999955
    vertex 201.82562246245095 300.55196450430185 15.799999999999931
    vertex 216.8903462820409 369.9882611991453 15.799999999999955
  endloop
endfacet
facet normal 0.0 0.0 1.0
  outer loop
    vertex 216.8903462820409 369.9882611991453 15.799999999999955
    vertex 201.82562246245095 300.55196450430185 15.799999999999931
    vertex 202.79034628204087 300.1523628142834 15.799999999999931
  endloop
endfacet
facet normal 0.0 0.0 1.0
  outer loop
    vertex 216.8903462820409 369.9882611991453 15.799999999999955
    vertex 202.79034628204087 300.1523628142834 15.799999999999931
    vertex 203.61877340678706 299.5166883238918 15.799999999999931
  endloop
endfacet
facet normal 0.0 0.0 1.0
  outer loop
    vertex 216.8903462820409 369.9882611991453 15.799999999999955
    vertex 203.61877340678706 299.5166883238918 15.799999999999931
    vertex 204.25444789717864 298.6882611991456 15.799999999999931
  endloop
endfacet
facet normal 0.0 0.0 1.0
  outer loop
    vertex 216.8903462820409 369.9882611991453 15.799999999999955
    vertex 204.25444789717864 298.6882611991456 15.799999999999931
    vertex 204.65404958719716 297.7235373795557 15.799999999999931
  endloop
endfacet
facet normal 0.0 0.0 1.0
  outer loop
    vertex 216.8903462820409 369.9882611991453 15.799999999999955
    vertex 204.65404958719716 297.7235373795557 15.799999999999931
    vertex 204.79034628204084 296.6882611991456 15.799999999999931
  endloop
endfacet
facet normal 0.0 -1.0 0.0
  outer loop
    vertex 245.59034628204088 278.88826119914563 20.799999999999923
    vertex 182.99034628204086 278.88826119914563 15.799999999999931
    vertex 245.59034628204088 278.88826119914563 15.799999999999931
  endloop
endfacet
facet normal 0.0 -1.0 0.0
  outer loop
    vertex 182.99034628204086 278.88826119914563 15.799999999999931
    vertex 245.59034628204088 278.88826119914563 20.799999999999923
    vertex 182.99034628204086 278.88826119914563 20.799999999999923
  endloop
endfacet
facet normal 0.0 -1.0 0.0
  outer loop
    vertex 243.59034628204088 404.4882611991453 20.799999999999923
    vertex 184.99034628204086 404.4882611991453 15.799999999999931
    vertex 243.59034628204088 404.4882611991453 15.799999999999931
  endloop
endfacet
facet normal 0.0 -1.0 0.0
  outer loop
    vertex 184.99034628204086 404.4882611991453 15.799999999999931
    vertex 243.59034628204088 404.4882611991453 20.799999999999923
    vertex 184.99034628204086 404.4882611991453 20.799999999999923
  endloop
endfacet
facet normal -1.0 -0.0 -0.0
  outer loop
    vertex 243.59034628204088 404.4882611991453 20.799999999999923
    vertex 243.59034628204088 280.88826119914563 15.799999999999931
    vertex 243.59034628204088 280.88826119914563 20.799999999999923
  endloop
endfacet
facet normal -1.0 -0.0 -0.0
  outer loop
    vertex 243.59034628204088 280.88826119914563 15.799999999999931
    vertex 243.59034628204088 404.4882611991453 20.799999999999923
    vertex 243.59034628204088 404.4882611991453 15.799999999999931
  endloop
endfacet
facet normal 1.0 0.0 0.0
  outer loop
    vertex 245.59034628204088 406.4882611991453 15.799999999999931
    vertex 245.59034628204088 278.88826119914563 20.799999999999923
    vertex 245.59034628204088 278.88826119914563 15.799999999999931
  endloop
endfacet
facet normal 1.0 0.0 0.0
  outer loop
    vertex 245.59034628204088 278.88826119914563 20.799999999999923
    vertex 245.59034628204088 406.4882611991453 15.799999999999931
    vertex 245.59034628204088 406.4882611991453 20.799999999999923
  endloop
endfacet
facet normal 0.0 0.0 1.0
  outer loop
    vertex 180.79034628204087 276.6882611991456 15.799999999999999
    vertex 182.99034628204086 278.88826119914563 15.799999999999931
    vertex 180.79034628204087 408.6882611991455 15.799999999999999
  endloop
endfacet
facet normal 0.0 0.0 1.0
  outer loop
    vertex 182.99034628204086 278.88826119914563 15.799999999999931
    vertex 180.79034628204087 276.6882611991456 15.799999999999999
    vertex 247.7903462820409 276.6882611991456 15.799999999999999
  endloop
endfacet
facet normal 0.0 0.0 1.0
  outer loop
    vertex 182.99034628204086 278.88826119914563 15.799999999999931
    vertex 247.7903462820409 276.6882611991456 15.799999999999999
    vertex 245.59034628204088 278.88826119914563 15.799999999999931
  endloop
endfacet
facet normal 0.0 0.0 1.0
  outer loop
    vertex 245.59034628204088 278.88826119914563 15.799999999999931
    vertex 247.7903462820409 276.6882611991456 15.799999999999999
    vertex 245.59034628204088 406.4882611991453 15.799999999999931
  endloop
endfacet
facet normal 0.0 0.0 1.0
  outer loop
    vertex 180.79034628204087 408.6882611991455 15.799999999999999
    vertex 182.99034628204086 406.4882611991453 15.799999999999931
    vertex 247.7903462820409 408.6882611991455 15.799999999999999
  endloop
endfacet
facet normal 0.0 0.0 1.0
  outer loop
    vertex 182.99034628204086 406.4882611991453 15.799999999999931
    vertex 180.79034628204087 408.6882611991455 15.799999999999999
    vertex 182.99034628204086 278.88826119914563 15.799999999999931
  endloop
endfacet
facet normal 0.0 0.0 1.0
  outer loop
    vertex 247.7903462820409 408.6882611991455 15.799999999999999
    vertex 182.99034628204086 406.4882611991453 15.799999999999931
    vertex 245.59034628204088 406.4882611991453 15.799999999999931
  endloop
endfacet
facet normal 0.0 0.0 1.0
  outer loop
    vertex 247.7903462820409 408.6882611991455 15.799999999999999
    vertex 245.59034628204088 406.4882611991453 15.799999999999931
    vertex 247.7903462820409 276.6882611991456 15.799999999999999
  endloop
endfacet
facet normal 0.0 0.0 1.0
  outer loop
    vertex 182.99034628204086 278.88826119914563 20.799999999999923
    vertex 184.99034628204086 280.88826119914563 20.799999999999923
    vertex 182.99034628204086 406.4882611991453 20.799999999999923
  endloop
endfacet
facet normal 0.0 0.0 1.0
  outer loop
    vertex 184.99034628204086 280.88826119914563 20.799999999999923
    vertex 182.99034628204086 278.88826119914563 20.799999999999923
    vertex 245.59034628204088 278.88826119914563 20.799999999999923
  endloop
endfacet
facet normal 0.0 0.0 1.0
  outer loop
    vertex 184.99034628204086 280.88826119914563 20.799999999999923
    vertex 245.59034628204088 278.88826119914563 20.799999999999923
    vertex 243.59034628204088 280.88826119914563 20.799999999999923
  endloop
endfacet
facet normal 0.0 0.0 1.0
  outer loop
    vertex 243.59034628204088 280.88826119914563 20.799999999999923
    vertex 245.59034628204088 278.88826119914563 20.799999999999923
    vertex 243.59034628204088 404.4882611991453 20.799999999999923
  endloop
endfacet
facet normal 0.0 0.0 1.0
  outer loop
    vertex 182.99034628204086 406.4882611991453 20.799999999999923
    vertex 184.99034628204086 404.4882611991453 20.799999999999923
    vertex 245.59034628204088 406.4882611991453 20.799999999999923
  endloop
endfacet
facet normal 0.0 0.0 1.0
  outer loop
    vertex 184.99034628204086 404.4882611991453 20.799999999999923
    vertex 182.99034628204086 406.4882611991453 20.799999999999923
    vertex 184.99034628204086 280.88826119914563 20.799999999999923
  endloop
endfacet
facet normal 0.0 0.0 1.0
  outer loop
    vertex 245.59034628204088 406.4882611991453 20.799999999999923
    vertex 184.99034628204086 404.4882611991453 20.799999999999923
    vertex 243.59034628204088 404.4882611991453 20.799999999999923
  endloop
endfacet
facet normal 0.0 0.0 1.0
  outer loop
    vertex 245.59034628204088 406.4882611991453 20.799999999999923
    vertex 243.59034628204088 404.4882611991453 20.799999999999923
    vertex 245.59034628204088 278.88826119914563 20.799999999999923
  endloop
endfacet
facet normal 1.0 0.0 0.0
  outer loop
    vertex 184.99034628204086 404.4882611991453 15.799999999999931
    vertex 184.99034628204086 280.88826119914563 20.799999999999923
    vertex 184.99034628204086 280.88826119914563 15.799999999999931
  endloop
endfacet
facet normal 1.0 0.0 0.0
  outer loop
    vertex 184.99034628204086 280.88826119914563 20.799999999999923
    vertex 184.99034628204086 404.4882611991453 15.799999999999931
    vertex 184.99034628204086 404.4882611991453 20.799999999999923
  endloop
endfacet
facet normal -0.3826834323650826 0.9238795325112898 0.0
  outer loop
    vertex 201.82562246245095 292.8245578939893 15.799999999999931
    vertex 202.79034628204087 293.22415958400785 13.799999999999958
    vertex 201.82562246245095 292.8245578939893 13.799999999999958
  endloop
endfacet
facet normal -0.3826834323650826 0.9238795325112898 0.0
  outer loop
    vertex 202.79034628204087 293.22415958400785 13.799999999999958
    vertex 201.82562246245095 292.8245578939893 15.799999999999931
    vertex 202.79034628204087 293.22415958400785 15.799999999999931
  endloop
endfacet
facet normal 0.0 0.0 -1.0
  outer loop
    vertex 200.79034628204087 384.48826119914537 13.799999999999958
    vertex 200.79034628204087 300.6882611991456 13.799999999999958
    vertex 199.7550701016308 300.55196450430185 13.799999999999958
  endloop
endfacet
facet normal 0.0 0.0 -1.0
  outer loop
    vertex 200.79034628204087 300.6882611991456 13.799999999999958
    vertex 200.79034628204087 384.48826119914537 13.799999999999958
    vertex 200.79034628204087 369.9882611991453 13.799999999999958
  endloop
endfacet
facet normal 0.0 0.0 -1.0
  outer loop
    vertex 200.79034628204087 300.6882611991456 13.799999999999958
    vertex 200.79034628204087 369.9882611991453 13.799999999999958
    vertex 216.8903462820409 369.9882611991453 13.799999999999958
  endloop
endfacet
facet normal 0.0 0.0 -1.0
  outer loop
    vertex 200.79034628204087 300.6882611991456 13.799999999999958
    vertex 216.8903462820409 369.9882611991453 13.799999999999958
    vertex 201.82562246245095 300.55196450430185 13.799999999999958
  endloop
endfacet
facet normal 0.0 0.0 -1.0
  outer loop
    vertex 201.82562246245095 300.55196450430185 13.799999999999958
    vertex 216.8903462820409 369.9882611991453 13.799999999999958
    vertex 202.79034628204087 300.1523628142834 13.799999999999958
  endloop
endfacet
facet normal 0.0 0.0 -1.0
  outer loop
    vertex 202.79034628204087 300.1523628142834 13.799999999999958
    vertex 216.8903462820409 369.9882611991453 13.799999999999958
    vertex 203.61877340678706 299.5166883238918 13.799999999999958
  endloop
endfacet
facet normal 0.0 0.0 -1.0
  outer loop
    vertex 203.61877340678706 299.5166883238918 13.799999999999958
    vertex 216.8903462820409 369.9882611991453 13.799999999999958
    vertex 204.25444789717864 298.6882611991456 13.799999999999958
  endloop
endfacet
facet normal 0.0 0.0 -1.0
  outer loop
    vertex 204.25444789717864 298.6882611991456 13.799999999999958
    vertex 216.8903462820409 369.9882611991453 13.799999999999958
    vertex 204.65404958719716 297.7235373795557 13.799999999999958
  endloop
endfacet
facet normal 0.0 0.0 -1.0
  outer loop
    vertex 204.65404958719716 297.7235373795557 13.799999999999958
    vertex 216.8903462820409 369.9882611991453 13.799999999999958
    vertex 204.79034628204084 296.6882611991456 13.799999999999958
  endloop
endfacet
facet normal 0.0 0.0 -1.0
  outer loop
    vertex 180.79034628204087 408.6882611991455 13.800000000000002
    vertex 200.79034628204087 384.48826119914537 13.799999999999958
    vertex 180.79034628204087 276.6882611991456 13.800000000000002
  endloop
endfacet
facet normal 0.0 0.0 -1.0
  outer loop
    vertex 200.79034628204087 384.48826119914537 13.799999999999958
    vertex 180.79034628204087 408.6882611991455 13.800000000000002
    vertex 247.7903462820409 408.6882611991455 13.800000000000002
  endloop
endfacet
facet normal 0.0 0.0 -1.0
  outer loop
    vertex 180.79034628204087 276.6882611991456 13.800000000000002
    vertex 200.79034628204087 384.48826119914537 13.799999999999958
    vertex 196.79034628204087 296.6882611991456 13.799999999999958
  endloop
endfacet
facet normal 0.0 0.0 -1.0
  outer loop
    vertex 196.79034628204087 296.6882611991456 13.799999999999958
    vertex 200.79034628204087 384.48826119914537 13.799999999999958
    vertex 196.9266429768846 297.7235373795557 13.799999999999958
  endloop
endfacet
facet normal 0.0 0.0 -1.0
  outer loop
    vertex 196.9266429768846 297.7235373795557 13.799999999999958
    vertex 200.79034628204087 384.48826119914537 13.799999999999958
    vertex 197.32624466690314 298.6882611991456 13.799999999999958
  endloop
endfacet
facet normal 0.0 0.0 -1.0
  outer loop
    vertex 197.32624466690314 298.6882611991456 13.799999999999958
    vertex 200.79034628204087 384.48826119914537 13.799999999999958
    vertex 197.9619191572947 299.5166883238918 13.799999999999958
  endloop
endfacet
facet normal 0.0 0.0 -1.0
  outer loop
    vertex 197.9619191572947 299.5166883238918 13.799999999999958
    vertex 200.79034628204087 384.48826119914537 13.799999999999958
    vertex 198.79034628204087 300.1523628142834 13.799999999999958
  endloop
endfacet
facet normal 0.0 0.0 -1.0
  outer loop
    vertex 198.79034628204087 300.1523628142834 13.799999999999958
    vertex 200.79034628204087 384.48826119914537 13.799999999999958
    vertex 199.7550701016308 300.55196450430185 13.799999999999958
  endloop
endfacet
facet normal 0.0 0.0 -1.0
  outer loop
    vertex 200.79034628204087 384.48826119914537 13.799999999999958
    vertex 247.7903462820409 408.6882611991455 13.800000000000002
    vertex 216.8903462820409 384.48826119914537 13.799999999999958
  endloop
endfacet
facet normal 0.0 0.0 -1.0
  outer loop
    vertex 216.8903462820409 384.48826119914537 13.799999999999958
    vertex 247.7903462820409 408.6882611991455 13.800000000000002
    vertex 216.8903462820409 369.9882611991453 13.799999999999958
  endloop
endfacet
facet normal 0.0 0.0 -1.0
  outer loop
    vertex 180.79034628204087 276.6882611991456 13.800000000000002
    vertex 199.7550701016308 292.8245578939893 13.799999999999958
    vertex 247.7903462820409 276.6882611991456 13.800000000000002
  endloop
endfacet
facet normal 0.0 0.0 -1.0
  outer loop
    vertex 199.7550701016308 292.8245578939893 13.799999999999958
    vertex 180.79034628204087 276.6882611991456 13.800000000000002
    vertex 198.79034628204087 293.22415958400785 13.799999999999958
  endloop
endfacet
facet normal 0.0 0.0 -1.0
  outer loop
    vertex 198.79034628204087 293.22415958400785 13.799999999999958
    vertex 180.79034628204087 276.6882611991456 13.800000000000002
    vertex 197.9619191572947 293.8598340743994 13.799999999999958
  endloop
endfacet
facet normal 0.0 0.0 -1.0
  outer loop
    vertex 197.9619191572947 293.8598340743994 13.799999999999958
    vertex 180.79034628204087 276.6882611991456 13.800000000000002
    vertex 197.32624466690314 294.6882611991456 13.799999999999958
  endloop
endfacet
facet normal 0.0 0.0 -1.0
  outer loop
    vertex 197.32624466690314 294.6882611991456 13.799999999999958
    vertex 180.79034628204087 276.6882611991456 13.800000000000002
    vertex 196.9266429768846 295.65298501873554 13.799999999999958
  endloop
endfacet
facet normal 0.0 0.0 -1.0
  outer loop
    vertex 196.9266429768846 295.65298501873554 13.799999999999958
    vertex 180.79034628204087 276.6882611991456 13.800000000000002
    vertex 196.79034628204087 296.6882611991456 13.799999999999958
  endloop
endfacet
facet normal 0.0 0.0 -1.0
  outer loop
    vertex 247.7903462820409 276.6882611991456 13.800000000000002
    vertex 199.7550701016308 292.8245578939893 13.799999999999958
    vertex 200.79034628204087 292.6882611991456 13.799999999999958
  endloop
endfacet
facet normal 0.0 0.0 -1.0
  outer loop
    vertex 247.7903462820409 276.6882611991456 13.800000000000002
    vertex 200.79034628204087 292.6882611991456 13.799999999999958
    vertex 201.82562246245095 292.8245578939893 13.799999999999958
  endloop
endfacet
facet normal 0.0 0.0 -1.0
  outer loop
    vertex 247.7903462820409 276.6882611991456 13.800000000000002
    vertex 201.82562246245095 292.8245578939893 13.799999999999958
    vertex 202.79034628204087 293.22415958400785 13.799999999999958
  endloop
endfacet
facet normal 0.0 0.0 -1.0
  outer loop
    vertex 247.7903462820409 276.6882611991456 13.800000000000002
    vertex 202.79034628204087 293.22415958400785 13.799999999999958
    vertex 203.61877340678706 293.8598340743994 13.799999999999958
  endloop
endfacet
facet normal 0.0 0.0 -1.0
  outer loop
    vertex 247.7903462820409 276.6882611991456 13.800000000000002
    vertex 203.61877340678706 293.8598340743994 13.799999999999958
    vertex 204.25444789717864 294.6882611991456 13.799999999999958
  endloop
endfacet
facet normal 0.0 0.0 -1.0
  outer loop
    vertex 247.7903462820409 276.6882611991456 13.800000000000002
    vertex 204.25444789717864 294.6882611991456 13.799999999999958
    vertex 204.65404958719716 295.65298501873554 13.799999999999958
  endloop
endfacet
facet normal 0.0 0.0 -1.0
  outer loop
    vertex 247.7903462820409 276.6882611991456 13.800000000000002
    vertex 204.65404958719716 295.65298501873554 13.799999999999958
    vertex 204.79034628204084 296.6882611991456 13.799999999999958
  endloop
endfacet
facet normal 0.0 0.0 -1.0
  outer loop
    vertex 247.7903462820409 276.6882611991456 13.800000000000002
    vertex 204.79034628204084 296.6882611991456 13.799999999999958
    vertex 216.8903462820409 369.9882611991453 13.799999999999958
  endloop
endfacet
facet normal 0.0 0.0 -1.0
  outer loop
    vertex 247.7903462820409 276.6882611991456 13.800000000000002
    vertex 216.8903462820409 369.9882611991453 13.799999999999958
    vertex 247.7903462820409 408.6882611991455 13.800000000000002
  endloop
endfacet
facet normal -1.0 -0.0 -0.0
  outer loop
    vertex 180.79034628204087 408.6882611991455 15.799999999999999
    vertex 180.79034628204087 276.6882611991456 13.800000000000002
    vertex 180.79034628204087 276.6882611991456 15.799999999999999
  endloop
endfacet
facet normal -1.0 -0.0 -0.0
  outer loop
    vertex 180.79034628204087 276.6882611991456 13.800000000000002
    vertex 180.79034628204087 408.6882611991455 15.799999999999999
    vertex 180.79034628204087 408.6882611991455 13.800000000000002
  endloop
endfacet
facet normal 1.0 0.0 0.0
  outer loop
    vertex 247.7903462820409 408.6882611991455 13.800000000000002
    vertex 247.7903462820409 276.6882611991456 15.799999999999999
    vertex 247.7903462820409 276.6882611991456 13.800000000000002
  endloop
endfacet
facet normal 1.0 0.0 0.0
  outer loop
    vertex 247.7903462820409 276.6882611991456 15.799999999999999
    vertex 247.7903462820409 408.6882611991455 13.800000000000002
    vertex 247.7903462820409 408.6882611991455 15.799999999999999
  endloop
endfacet
facet normal 0.0 1.0 0.0
  outer loop
    vertex 180.79034628204087 408.6882611991455 15.799999999999999
    vertex 247.7903462820409 408.6882611991455 13.800000000000002
    vertex 180.79034628204087 408.6882611991455 13.800000000000002
  endloop
endfacet
facet normal 0.0 1.0 0.0
  outer loop
    vertex 247.7903462820409 408.6882611991455 13.800000000000002
    vertex 180.79034628204087 408.6882611991455 15.799999999999999
    vertex 247.7903462820409 408.6882611991455 15.799999999999999
  endloop
endfacet
facet normal -0.9914448613738106 -0.13052619222005077 -0.0
  outer loop
    vertex 204.65404958719716 297.7235373795557 15.799999999999931
    vertex 204.79034628204084 296.6882611991456 13.799999999999958
    vertex 204.79034628204084 296.6882611991456 15.799999999999931
  endloop
endfacet
facet normal -0.9914448613738106 -0.13052619222005077 -0.0
  outer loop
    vertex 204.79034628204084 296.6882611991456 13.799999999999958
    vertex 204.65404958719716 297.7235373795557 15.799999999999931
    vertex 204.65404958719716 297.7235373795557 13.799999999999958
  endloop
endfacet
facet normal -0.9914448613738106 0.13052619222005077 0.0
  outer loop
    vertex 204.79034628204084 296.6882611991456 15.799999999999931
    vertex 204.65404958719716 295.65298501873554 13.799999999999958
    vertex 204.65404958719716 295.65298501873554 15.799999999999931
  endloop
endfacet
facet normal -0.9914448613738106 0.13052619222005077 0.0
  outer loop
    vertex 204.65404958719716 295.65298501873554 13.799999999999958
    vertex 204.79034628204084 296.6882611991456 15.799999999999931
    vertex 204.79034628204084 296.6882611991456 13.799999999999958
  endloop
endfacet
facet normal -0.6087614290087167 0.7933533402912383 0.0
  outer loop
    vertex 202.79034628204087 293.22415958400785 15.799999999999931
    vertex 203.61877340678706 293.8598340743994 13.799999999999958
    vertex 202.79034628204087 293.22415958400785 13.799999999999958
  endloop
endfacet
facet normal -0.6087614290087167 0.7933533402912383 0.0
  outer loop
    vertex 203.61877340678706 293.8598340743994 13.799999999999958
    vertex 202.79034628204087 293.22415958400785 15.799999999999931
    vertex 203.61877340678706 293.8598340743994 15.799999999999931
  endloop
endfacet
facet normal 0.0 1.0 0.0
  outer loop
    vertex 184.99034628204086 280.88826119914563 20.799999999999923
    vertex 243.59034628204088 280.88826119914563 15.799999999999931
    vertex 184.99034628204086 280.88826119914563 15.799999999999931
  endloop
endfacet
facet normal 0.0 1.0 0.0
  outer loop
    vertex 243.59034628204088 280.88826119914563 15.799999999999931
    vertex 184.99034628204086 280.88826119914563 20.799999999999923
    vertex 243.59034628204088 280.88826119914563 20.799999999999923
  endloop
endfacet
facet normal -0.1305261922200518 0.9914448613738104 0.0
  outer loop
    vertex 200.79034628204087 292.6882611991456 15.799999999999931
    vertex 201.82562246245095 292.8245578939893 13.799999999999958
    vertex 200.79034628204087 292.6882611991456 13.799999999999958
  endloop
endfacet
facet normal -0.1305261922200518 0.9914448613738104 0.0
  outer loop
    vertex 201.82562246245095 292.8245578939893 13.799999999999958
    vertex 200.79034628204087 292.6882611991456 15.799999999999931
    vertex 201.82562246245095 292.8245578939893 15.799999999999931
  endloop
endfacet
facet normal 0.13052619222005163 0.9914448613738104 0.0
  outer loop
    vertex 199.7550701016308 292.8245578939893 15.799999999999931
    vertex 200.79034628204087 292.6882611991456 13.799999999999958
    vertex 199.7550701016308 292.8245578939893 13.799999999999958
  endloop
endfacet
facet normal 0.13052619222005163 0.9914448613738104 0.0
  outer loop
    vertex 200.79034628204087 292.6882611991456 13.799999999999958
    vertex 199.7550701016308 292.8245578939893 15.799999999999931
    vertex 200.79034628204087 292.6882611991456 15.799999999999931
  endloop
endfacet
facet normal -0.7933533402912399 0.6087614290087143 0.0
  outer loop
    vertex 204.25444789717864 294.6882611991456 15.799999999999931
    vertex 203.61877340678706 293.8598340743994 13.799999999999958
    vertex 203.61877340678706 293.8598340743994 15.799999999999931
  endloop
endfacet
facet normal -0.7933533402912399 0.6087614290087143 0.0
  outer loop
    vertex 203.61877340678706 293.8598340743994 13.799999999999958
    vertex 204.25444789717864 294.6882611991456 15.799999999999931
    vertex 204.25444789717864 294.6882611991456 13.799999999999958
  endloop
endfacet
facet normal 0.0 -1.0 0.0
  outer loop
    vertex 247.7903462820409 276.6882611991456 15.799999999999999
    vertex 180.79034628204087 276.6882611991456 13.800000000000002
    vertex 247.7903462820409 276.6882611991456 13.800000000000002
  endloop
endfacet
facet normal 0.0 -1.0 0.0
  outer loop
    vertex 180.79034628204087 276.6882611991456 13.800000000000002
    vertex 247.7903462820409 276.6882611991456 15.799999999999999
    vertex 180.79034628204087 276.6882611991456 15.799999999999999
  endloop
endfacet
facet normal -0.9238795325112845 0.3826834323650951 0.0
  outer loop
    vertex 204.65404958719716 295.65298501873554 15.799999999999931
    vertex 204.25444789717864 294.6882611991456 13.799999999999958
    vertex 204.25444789717864 294.6882611991456 15.799999999999931
  endloop
endfacet
facet normal -0.9238795325112845 0.3826834323650951 0.0
  outer loop
    vertex 204.25444789717864 294.6882611991456 13.799999999999958
    vertex 204.65404958719716 295.65298501873554 15.799999999999931
    vertex 204.65404958719716 295.65298501873554 13.799999999999958
  endloop
endfacet
facet normal -0.13052619222005163 -0.9914448613738104 -0.0
  outer loop
    vertex 201.82562246245095 300.55196450430185 15.799999999999931
    vertex 200.79034628204087 300.6882611991456 13.799999999999958
    vertex 201.82562246245095 300.55196450430185 13.799999999999958
  endloop
endfacet
facet normal -0.13052619222005163 -0.9914448613738104 -0.0
  outer loop
    vertex 200.79034628204087 300.6882611991456 13.799999999999958
    vertex 201.82562246245095 300.55196450430185 15.799999999999931
    vertex 200.79034628204087 300.6882611991456 15.799999999999931
  endloop
endfacet
facet normal 0.1305261922200518 -0.9914448613738104 0.0
  outer loop
    vertex 200.79034628204087 300.6882611991456 15.799999999999931
    vertex 199.7550701016308 300.55196450430185 13.799999999999958
    vertex 200.79034628204087 300.6882611991456 13.799999999999958
  endloop
endfacet
facet normal 0.1305261922200518 -0.9914448613738104 0.0
  outer loop
    vertex 199.7550701016308 300.55196450430185 13.799999999999958
    vertex 200.79034628204087 300.6882611991456 15.799999999999931
    vertex 199.7550701016308 300.55196450430185 15.799999999999931
  endloop
endfacet
facet normal -0.3826834323650826 -0.9238795325112898 -0.0
  outer loop
    vertex 202.79034628204087 300.1523628142834 15.799999999999931
    vertex 201.82562246245095 300.55196450430185 13.799999999999958
    vertex 202.79034628204087 300.1523628142834 13.799999999999958
  endloop
endfacet
facet normal -0.3826834323650826 -0.9238795325112898 -0.0
  outer loop
    vertex 201.82562246245095 300.55196450430185 13.799999999999958
    vertex 202.79034628204087 300.1523628142834 15.799999999999931
    vertex 201.82562246245095 300.55196450430185 15.799999999999931
  endloop
endfacet
facet normal -0.9238795325112855 -0.38268343236509283 -0.0
  outer loop
    vertex 204.25444789717864 298.6882611991456 15.799999999999931
    vertex 204.65404958719716 297.7235373795557 13.799999999999958
    vertex 204.65404958719716 297.7235373795557 15.799999999999931
  endloop
endfacet
facet normal -0.9238795325112855 -0.38268343236509283 -0.0
  outer loop
    vertex 204.65404958719716 297.7235373795557 13.799999999999958
    vertex 204.25444789717864 298.6882611991456 15.799999999999931
    vertex 204.25444789717864 298.6882611991456 13.799999999999958
  endloop
endfacet
facet normal 0.7933533402912394 0.6087614290087153 0.0
  outer loop
    vertex 197.32624466690314 294.6882611991456 13.799999999999958
    vertex 197.9619191572947 293.8598340743994 15.799999999999931
    vertex 197.9619191572947 293.8598340743994 13.799999999999958
  endloop
endfacet
facet normal 0.7933533402912394 0.6087614290087153 0.0
  outer loop
    vertex 197.9619191572947 293.8598340743994 15.799999999999931
    vertex 197.32624466690314 294.6882611991456 13.799999999999958
    vertex 197.32624466690314 294.6882611991456 15.799999999999931
  endloop
endfacet
facet normal 0.9914448613738106 0.13052619222005077 0.0
  outer loop
    vertex 196.79034628204087 296.6882611991456 13.799999999999958
    vertex 196.9266429768846 295.65298501873554 15.799999999999931
    vertex 196.9266429768846 295.65298501873554 13.799999999999958
  endloop
endfacet
facet normal 0.9914448613738106 0.13052619222005077 0.0
  outer loop
    vertex 196.9266429768846 295.65298501873554 15.799999999999931
    vertex 196.79034628204087 296.6882611991456 13.799999999999958
    vertex 196.79034628204087 296.6882611991456 15.799999999999931
  endloop
endfacet
facet normal -0.7933533402912386 -0.6087614290087161 -0.0
  outer loop
    vertex 203.61877340678706 299.5166883238918 15.799999999999931
    vertex 204.25444789717864 298.6882611991456 13.799999999999958
    vertex 204.25444789717864 298.6882611991456 15.799999999999931
  endloop
endfacet
facet normal -0.7933533402912386 -0.6087614290087161 -0.0
  outer loop
    vertex 204.25444789717864 298.6882611991456 13.799999999999958
    vertex 203.61877340678706 299.5166883238918 15.799999999999931
    vertex 203.61877340678706 299.5166883238918 13.799999999999958
  endloop
endfacet
facet normal 0.7933533402912394 -0.6087614290087153 0.0
  outer loop
    vertex 197.9619191572947 299.5166883238918 13.799999999999958
    vertex 197.32624466690314 298.6882611991456 15.799999999999931
    vertex 197.32624466690314 298.6882611991456 13.799999999999958
  endloop
endfacet
facet normal 0.7933533402912394 -0.6087614290087153 0.0
  outer loop
    vertex 197.32624466690314 298.6882611991456 15.799999999999931
    vertex 197.9619191572947 299.5166883238918 13.799999999999958
    vertex 197.9619191572947 299.5166883238918 15.799999999999931
  endloop
endfacet
facet normal 0.608761429008718 0.7933533402912374 0.0
  outer loop
    vertex 197.9619191572947 293.8598340743994 15.799999999999931
    vertex 198.79034628204087 293.22415958400785 13.799999999999958
    vertex 197.9619191572947 293.8598340743994 13.799999999999958
  endloop
endfacet
facet normal 0.608761429008718 0.7933533402912374 0.0
  outer loop
    vertex 198.79034628204087 293.22415958400785 13.799999999999958
    vertex 197.9619191572947 293.8598340743994 15.799999999999931
    vertex 198.79034628204087 293.22415958400785 15.799999999999931
  endloop
endfacet
facet normal 0.9914448613738106 -0.13052619222005077 0.0
  outer loop
    vertex 196.9266429768846 297.7235373795557 13.799999999999958
    vertex 196.79034628204087 296.6882611991456 15.799999999999931
    vertex 196.79034628204087 296.6882611991456 13.799999999999958
  endloop
endfacet
facet normal 0.9914448613738106 -0.13052619222005077 0.0
  outer loop
    vertex 196.79034628204087 296.6882611991456 15.799999999999931
    vertex 196.9266429768846 297.7235373795557 13.799999999999958
    vertex 196.9266429768846 297.7235373795557 15.799999999999931
  endloop
endfacet
facet normal -0.608761429008718 -0.7933533402912374 -0.0
  outer loop
    vertex 203.61877340678706 299.5166883238918 15.799999999999931
    vertex 202.79034628204087 300.1523628142834 13.799999999999958
    vertex 203.61877340678706 299.5166883238918 13.799999999999958
  endloop
endfacet
facet normal -0.608761429008718 -0.7933533402912374 -0.0
  outer loop
    vertex 202.79034628204087 300.1523628142834 13.799999999999958
    vertex 203.61877340678706 299.5166883238918 15.799999999999931
    vertex 202.79034628204087 300.1523628142834 15.799999999999931
  endloop
endfacet
facet normal 0.3826834323650826 -0.9238795325112898 0.0
  outer loop
    vertex 199.7550701016308 300.55196450430185 15.799999999999931
    vertex 198.79034628204087 300.1523628142834 13.799999999999958
    vertex 199.7550701016308 300.55196450430185 13.799999999999958
  endloop
endfacet
facet normal 0.3826834323650826 -0.9238795325112898 0.0
  outer loop
    vertex 198.79034628204087 300.1523628142834 13.799999999999958
    vertex 199.7550701016308 300.55196450430185 15.799999999999931
    vertex 198.79034628204087 300.1523628142834 15.799999999999931
  endloop
endfacet
facet normal 0.9238795325112855 0.38268343236509283 0.0
  outer loop
    vertex 196.9266429768846 295.65298501873554 13.799999999999958
    vertex 197.32624466690314 294.6882611991456 15.799999999999931
    vertex 197.32624466690314 294.6882611991456 13.799999999999958
  endloop
endfacet
facet normal 0.9238795325112855 0.38268343236509283 0.0
  outer loop
    vertex 197.32624466690314 294.6882611991456 15.799999999999931
    vertex 196.9266429768846 295.65298501873554 13.799999999999958
    vertex 196.9266429768846 295.65298501873554 15.799999999999931
  endloop
endfacet
facet normal -1.0 -0.0 -0.0
  outer loop
    vertex 216.8903462820409 384.48826119914537 15.799999999999955
    vertex 216.8903462820409 369.9882611991453 13.799999999999958
    vertex 216.8903462820409 369.9882611991453 15.799999999999955
  endloop
endfacet
facet normal -1.0 -0.0 -0.0
  outer loop
    vertex 216.8903462820409 369.9882611991453 13.799999999999958
    vertex 216.8903462820409 384.48826119914537 15.799999999999955
    vertex 216.8903462820409 384.48826119914537 13.799999999999958
  endloop
endfacet
facet normal 0.923879532511285 -0.38268343236509395 0.0
  outer loop
    vertex 197.32624466690314 298.6882611991456 13.799999999999958
    vertex 196.9266429768846 297.7235373795557 15.799999999999931
    vertex 196.9266429768846 297.7235373795557 13.799999999999958
  endloop
endfacet
facet normal 0.923879532511285 -0.38268343236509395 0.0
  outer loop
    vertex 196.9266429768846 297.7235373795557 15.799999999999931
    vertex 197.32624466690314 298.6882611991456 13.799999999999958
    vertex 197.32624466690314 298.6882611991456 15.799999999999931
  endloop
endfacet
facet normal 0.6087614290087173 -0.7933533402912377 0.0
  outer loop
    vertex 198.79034628204087 300.1523628142834 15.799999999999931
    vertex 197.9619191572947 299.5166883238918 13.799999999999958
    vertex 198.79034628204087 300.1523628142834 13.799999999999958
  endloop
endfacet
facet normal 0.6087614290087173 -0.7933533402912377 0.0
  outer loop
    vertex 197.9619191572947 299.5166883238918 13.799999999999958
    vertex 198.79034628204087 300.1523628142834 15.799999999999931
    vertex 197.9619191572947 299.5166883238918 15.799999999999931
  endloop
endfacet
facet normal 0.0 1.0 0.0
  outer loop
    vertex 200.79034628204087 369.9882611991453 15.799999999999955
    vertex 216.8903462820409 369.9882611991453 13.799999999999958
    vertex 200.79034628204087 369.9882611991453 13.799999999999958
  endloop
endfacet
facet normal 0.0 1.0 0.0
  outer loop
    vertex 216.8903462820409 369.9882611991453 13.799999999999958
    vertex 200.79034628204087 369.9882611991453 15.799999999999955
    vertex 216.8903462820409 369.9882611991453 15.799999999999955
  endloop
endfacet
facet normal 0.3826834323650826 0.9238795325112898 0.0
  outer loop
    vertex 198.79034628204087 293.22415958400785 15.799999999999931
    vertex 199.7550701016308 292.8245578939893 13.799999999999958
    vertex 198.79034628204087 293.22415958400785 13.799999999999958
  endloop
endfacet
facet normal 0.3826834323650826 0.9238795325112898 0.0
  outer loop
    vertex 199.7550701016308 292.8245578939893 13.799999999999958
    vertex 198.79034628204087 293.22415958400785 15.799999999999931
    vertex 199.7550701016308 292.8245578939893 15.799999999999931
  endloop
endfacet
facet normal 0.0 -1.0 0.0
  outer loop
    vertex 216.8903462820409 384.48826119914537 15.799999999999955
    vertex 200.79034628204087 384.48826119914537 13.799999999999958
    vertex 216.8903462820409 384.48826119914537 13.799999999999958
  endloop
endfacet
facet normal 0.0 -1.0 0.0
  outer loop
    vertex 200.79034628204087 384.48826119914537 13.799999999999958
    vertex 216.8903462820409 384.48826119914537 15.799999999999955
    vertex 200.79034628204087 384.48826119914537 15.799999999999955
  endloop
endfacet
facet normal 1.0 0.0 0.0
  outer loop
    vertex 200.79034628204087 384.48826119914537 13.799999999999958
    vertex 200.79034628204087 369.9882611991453 15.799999999999955
    vertex 200.79034628204087 369.9882611991453 13.799999999999958
  endloop
endfacet
facet normal 1.0 0.0 0.0
  outer loop
    vertex 200.79034628204087 369.9882611991453 15.799999999999955
    vertex 200.79034628204087 384.48826119914537 13.799999999999958
    vertex 200.79034628204087 384.48826119914537 15.799999999999955
  endloop
endfacet
endsolid Корпус дозатор 2019
